0 -1.4637 -0.91712 
1 0.508845 -0.462102 
2 0.0694206 0.636652 
3 -1.1624 -0.973384 
4 -1.68479 -0.935516 
5 -0.257612 -0.490205 
6 -0.501175 0.19884 
7 -0.0784566 -0.000172423 
8 0.632212 -0.00300384 
9 0.27365 0.0541476 
10 0.215874 0.441695 
11 -0.189841 -0.186641 
12 -0.0657716 0.163621 
13 -0.342885 -0.518095 
14 0.0950127 0.178878 
15 0.00266578 -0.0796645 
16 0.734619 -0.27673 
17 -0.342704 -0.446251 
18 -0.802198 -0.745447 
19 0.752197 0.616965 
20 0.359727 -0.418279 
21 0.346099 0.800241 
22 0.448476 0.0796092 
23 0.747828 0.212289 
24 -0.119013 0.158526 
25 -0.839706 -0.596786 
26 0.611156 0.585945 
27 -0.00971773 0.0295031 
28 0.0402982 0.140814 
29 0.0835155 0.380522 
30 -0.410824 -0.668622 
31 0.462135 1.05178 
32 -1.47094 -1.08677 
33 0.0957534 0.426837 
34 1.25036 0.801546 
35 1.07566 0.518167 
36 0.107209 -0.232667 
37 -0.307483 0.424155 
38 0.060431 -0.573049 
39 -0.414762 -0.606622 
40 0.307658 -0.0273566 
41 -0.317588 -0.739534 
42 -0.9845 -0.570932 
43 -0.645669 -0.738467 
44 0.199999 -0.0243106 
45 0.202874 0.722472 
46 0.0229235 0.325917 
47 0.21308 0.146941 
48 0.654627 0.787259 
49 1.44777 0.691421 
50 -0.330155 -0.149994 
51 0.0866866 0.0411961 
52 -0.0167028 -0.580417 
53 0.27282 0.566483 
54 0.0417568 -0.179502 
55 -0.454308 0.361087 
56 0.460299 0.151078 
57 -0.0790301 0.593455 
58 -0.367453 -0.570072 
59 0.68954 0.952931 
60 0.113753 0.54375 
61 0.938292 0.510494 
62 0.211686 -0.306329 
63 0.885838 0.633516 
64 -0.985257 -0.750655 
65 -0.518811 -1.08298 
66 0.0104028 -0.0336803 
67 1.99692 0.962759 
68 -1.08045 -0.935725 
69 -0.195839 -0.493202 
70 -0.500869 -0.935989 
71 -0.0315724 -0.152007 
72 -1.60692 -0.825154 
73 0.745277 0.0761053 
74 1.24926 0.749155 
75 0.377869 -0.140735 
76 0.0154061 -0.220082 
77 -0.493679 -0.683284 
78 0.506711 0.0689991 
79 -0.0552833 -0.119185 
80 0.119721 -0.767025 
81 0.703841 0.233639 
82 0.210137 0.390978 
83 -0.0702986 -0.0421053 
84 -0.153075 0.0510265 
85 0.235182 -0.0141882 
86 0.404005 0.147503 
87 -0.266928 0.00380451 
88 -0.471725 -0.318019 
89 0.0864867 0.936183 
90 0.810778 0.514138 
91 -0.115474 -0.331425 
92 -1.48934 -1.06095 
93 0.643484 0.189268 
94 0.0228672 -0.27345 
95 0.178412 -0.25525 
96 0.0786184 0.657725 
97 0.193406 -0.0181064 
98 -0.00915293 0.92032 
99 0.263779 1.03054 
100 -0.0189499 0.007109 
101 -0.895384 -1.00701 
102 0.166241 -0.828339 
103 -0.260262 0.276452 
104 -0.101079 -0.586218 
105 1.54273 0.82054 
106 0.000567944 0.2992 
107 -0.288838 -0.54518 
108 -0.250869 -0.0807935 
109 0.523042 0.0376929 
110 0.0401449 0.334221 
111 0.0926024 -0.251222 
112 0.764706 0.287673 
113 -0.0818008 0.0851022 
114 0.0549441 0.0169216 
115 -0.112864 -1.00797 
116 -0.0219242 0.436731 
117 1.37109 0.754721 
118 0.0425584 -0.358846 
119 0.129672 -0.247341 
120 0.273057 -0.16001 
121 0.333063 0.732751 
122 0.498084 0.293936 
123 -0.912961 -0.835682 
124 -0.00370236 -0.504399 
125 0.178861 0.0958682 
126 0.784088 0.840182 
127 1.20326 1.61029 
128 -0.131917 -0.0920173 
129 0.458164 -0.361358 
130 0.334412 0.431419 
131 -0.494209 -0.647383 
132 -0.113536 -0.410871 
133 -1.38089 -1.07932 
134 0.185784 0.207973 
135 -0.0742298 0.832845 
136 0.278142 -0.273802 
137 -0.400902 -0.321206 
138 0.905284 1.03667 
139 0.47208 0.0839369 
140 1.06446 0.957351 
141 -0.786042 0.415968 
142 0.788424 0.511429 
143 -0.173524 -0.262171 
144 -0.167605 0.582764 
145 -0.352448 -0.541908 
146 -0.128308 0.0331823 
147 -0.455368 -0.556893 
148 -0.156253 0.372626 
149 -0.166949 -0.230744 
150 -1.90367 -1.2381 
151 -1.46289 -0.909439 
152 -0.635298 -0.320864 
153 1.09782 0.641256 
154 0.826613 1.0076 
155 -0.299514 0.603128 
156 -0.108009 -0.440623 
157 -0.164381 -0.0462821 
158 -0.311163 -0.226421 
159 0.581136 -0.253257 
160 -0.0500084 0.100894 
161 0.469863 0.454228 
162 0.129659 0.616252 
163 0.220686 0.303375 
164 2.26605 0.9785 
165 0.135632 -0.378777 
166 1.93722 0.879096 
167 0.0733633 0.958588 
168 -0.182822 0.696564 
169 -0.523951 -0.751336 
170 0.341396 -0.382142 
171 1.02571 0.630748 
172 -2.12956 -1.28328 
173 0.433327 0.0433568 
174 -0.3134 -0.265636 
175 -1.43158 -0.752976 
176 0.337455 0.829838 
177 -0.191633 -0.213275 
178 -0.031616 0.180812 
179 -0.0767757 0.305243 
180 0.673416 0.535549 
181 0.980276 0.133587 
182 1.65308 0.643555 
183 0.116809 0.44906 
184 -0.148945 -0.207129 
185 -0.237266 0.644344 
186 0.964752 0.48107 
187 2.06323 0.906373 
188 -0.367435 0.219883 
189 -0.238666 0.253004 
190 -1.81336 -1.33919 
191 -0.011904 -0.54339 
192 0.646612 0.117778 
193 -0.911154 -0.239792 
194 0.00416974 -0.31552 
195 -0.177438 -0.62645 
196 -0.348652 -0.712154 
197 0.483971 0.309385 
198 0.503008 -0.282434 
199 0.0309817 0.061091 
200 -0.266811 -0.232138 
201 -1.29985 -0.491004 
202 0.0358524 -0.440043 
203 -0.0329943 -0.299351 
204 -0.446527 -0.540377 
205 -0.556292 -0.78449 
206 0.45449 0.79222 
207 -0.162408 0.41603 
208 -0.766749 -0.649182 
209 0.013011 0.603037 
210 0.714364 0.554186 
211 -0.138611 -0.345401 
212 0.0927967 0.314872 
213 -0.287702 0.317558 
214 0.395794 0.501353 
215 0.555755 0.614427 
216 -1.19608 -0.586678 
217 -0.101565 0.162694 
218 -0.560114 -0.478335 
219 0.386927 0.304995 
220 -0.513642 -0.928329 
221 -1.74067 -1.19322 
222 -0.435559 -0.173229 
223 -0.194608 -0.736078 
224 -0.765834 -0.115897 
225 0.65639 0.533458 
226 0.0658668 0.896893 
227 -0.451906 -0.24518 
228 -1.05395 -0.484332 
229 0.361189 0.499193 
230 -0.475072 -0.478353 
231 -0.766434 -0.757269 
232 -0.166271 -0.202253 
233 -0.354969 -0.00176186 
234 -0.6723 -0.356437 
235 0.0246445 0.458234 
236 0.0147205 -0.417868 
237 -0.263006 -0.354795 
238 0.265619 0.0200506 
239 -0.0109301 -0.207083 
240 -1.59178 -1.19713 
241 -1.45959 -0.862413 
242 -0.3328 -0.745757 
243 -0.403199 -0.633934 
244 0.478765 0.162373 
245 0.359759 -0.129551 
246 0.111989 0.00187603 
247 0.0149796 0.0842107 
248 0.343004 -0.466425 
249 0.682482 0.394159 
250 -0.457275 -0.85191 
251 -1.37166 -0.859394 
252 -0.725558 -0.989669 
253 -0.467644 -0.349727 
254 -0.38859 -0.218463 
255 0.208964 0.17325 
256 -0.211671 0.246462 
257 0.277634 -0.0640511 
258 1.22071 0.045739 
259 1.10035 1.06245 
260 1.11189 0.811656 
261 -0.111077 -0.280713 
262 -0.503633 -0.181436 
263 -0.168907 0.477114 
264 0.227316 -0.142988 
265 -0.262057 -0.464831 
266 0.876156 0.495981 
267 -0.0148629 0.171738 
268 -1.78839 -1.34453 
269 -0.616766 0.122838 
270 0.425595 0.335711 
271 -0.783598 -0.598957 
272 0.317034 1.11989 
273 0.530663 0.498767 
274 1.3441 0.871611 
275 -0.149528 -0.7052 
276 0.269338 0.380249 
277 -0.750367 -0.674851 
278 -1.31256 -0.874483 
279 1.19668 1.53231 
280 0.479823 0.811509 
281 -0.643353 0.0863291 
282 -0.0327564 0.317996 
283 -0.0945589 0.137929 
284 -0.01963 -0.732034 
285 -0.0687721 -0.148256 
286 0.235379 0.523578 
287 0.332734 -0.309334 
288 0.946326 0.768947 
289 -0.186254 -0.204784 
290 0.331073 0.525554 
291 -0.860765 -1.03655 
292 -0.707994 -0.435102 
293 0.99545 0.562024 
294 0.411907 0.227878 
295 0.254873 0.51689 
296 -0.234046 -0.0774845 
297 -1.76185 -1.25021 
298 -0.204814 0.0126334 
299 -1.16991 -1.02621 
terror=7.97063
l1pen=42.2512
l2pen=334.914
-7.39973 0.524124 -9.80786 8.93107 -0.691298 0.206498 -5.18841 0.653756 -0.128243 -8.72017 
F= -7.39973* ( ( ( ( ( (1/(x1 - (2.26618))) ) ) ) ) ) +0.524124* (x2 /  (x1 - (2.26618)) ) -9.80786*x1+8.93107*x1-0.691298* ( ( ( (x1) ) ) ) +0.206498* ( (x3 +  ( (x4) ) ) ) -5.18841* ( (1/(x3 - (3.80648)))  -  (1/(x3 - (3.80648))) ) +0.653756* (x3 - (3.80648)) -0.128243* ( ( (1/(x2 - (1.48739)))  *  ( ( (x1) ) ) ) ) -8.72017* (1/(x0 - (-8.4463))) 
3 3 0 2 1 6 1 2.26618 2 0 3 4 2 5 1 2.26618 1.11258e-307 1.22383e-307 9.45684e-308 9.45684e-308 4 1 1.22383e-307 1.33509e-307 9.45698e-308 9.45684e-308 4.45036e-308 4.45036e-308 1.39071e-307 1.33509e-307 4 1 1.3907e-307 1.16819e-307 1.39071e-307 9.45684e-308 9.45684e-308 4.45039e-308 4.45038e-308 1.00133e-307 0 3 3 3 4 1 3 2 1 1 1 0 4 3 0 1 4 4 2 0 1 6 3 3.80648 6 3 3.80648 4.45036e-308 1.22384e-307 1.11258e-307 5 3 3.80648 1.05696e-307 1.22383e-307 1.33509e-307 9.45705e-308 1.27946e-307 1.16821e-307 1.11258e-307 2 2 6 2 1.48739 0 2 3 4 1 6 0 -8.4463 1.27947e-307 1.05695e-307 1.05695e-307 1.16821e-307 9.45684e-308 4.45036e-308 4.45036e-308 
0 0 0 0 0 0 2 1 0 0 0 0 2 0 2 1 3735605 3342368 3211320 655392 0 2 2949152 3014711 3735603 3604537 3670066 3276848 2097205 3014704 0 2 3342386 3211320 2097207 3735597 3670062 3604528 3473464 3407928 0 0 0 0 0 2 0 0 0 0 0 0 0 2 0 0 0 2 0 0 0 0 2 1 0 2 1 3538990 3342389 3473463 0 2 1 3014704 3276849 3276856 3276852 3735609 2097206 3670061 0 0 0 2 1 0 0 0 0 2 0 2 1 3145785 3145780 3276832 3276846 3538998 3604529 3276853 
