0 -1.4637 -0.662281 
1 0.508845 -0.607242 
2 0.0694206 0.642891 
3 -1.1624 -0.553242 
4 -1.68479 -0.969824 
5 -0.257612 -0.24656 
6 -0.501175 -0.12087 
7 -0.0784566 0.071961 
8 0.632212 0.26456 
9 0.27365 0.229846 
10 0.215874 0.474314 
11 -0.189841 -0.403161 
12 -0.0657716 -0.306783 
13 -0.342885 -0.190323 
14 0.0950127 -0.381037 
15 0.00266578 0.151954 
16 0.734619 -0.0115593 
17 -0.342704 -0.201766 
18 -0.802198 -0.376187 
19 0.752197 0.504363 
20 0.359727 -0.07579 
21 0.346099 0.719228 
22 0.448476 0.412979 
23 0.747828 0.412779 
24 -0.119013 0.254416 
25 -0.839706 -0.345547 
26 0.611156 0.515475 
27 -0.00971773 -0.203448 
28 0.0402982 0.13232 
29 0.0835155 0.390048 
30 -0.410824 -0.710337 
31 0.462135 0.290611 
32 -1.47094 -0.730648 
33 0.0957534 0.631082 
34 1.25036 0.729793 
35 1.07566 0.581134 
36 0.107209 -0.709838 
37 -0.307483 0.386711 
38 0.060431 -0.181466 
39 -0.414762 -0.521843 
40 0.307658 0.180283 
41 -0.317588 -0.582624 
42 -0.9845 -1.07727 
43 -0.645669 -0.508067 
44 0.199999 0.156259 
45 0.202874 0.414614 
46 0.0229235 0.467311 
47 0.21308 0.110445 
48 0.654627 0.965235 
49 1.44777 0.762279 
50 -0.330155 -0.0364826 
51 0.0866866 0.0769472 
52 -0.0167028 -0.542327 
53 0.27282 0.055062 
54 0.0417568 -0.187846 
55 -0.454308 -0.0283791 
56 0.460299 0.39098 
57 -0.0790301 0.409954 
58 -0.367453 -0.394903 
59 0.68954 0.50582 
60 0.113753 0.352597 
61 0.938292 0.627307 
62 0.211686 -0.22007 
63 0.885838 0.430832 
64 -0.985257 -0.493018 
65 -0.518811 -0.951073 
66 0.0104028 -0.0979056 
67 1.99692 1.06447 
68 -1.08045 -0.620885 
69 -0.195839 -0.316148 
70 -0.500869 -0.627149 
71 -0.0315724 -0.0877132 
72 -1.60692 -0.986754 
73 0.745277 0.324291 
74 1.24926 0.725148 
75 0.377869 0.0533821 
76 0.0154061 -0.0128028 
77 -0.493679 -0.970402 
78 0.506711 0.46421 
79 -0.0552833 -0.396197 
80 0.119721 -0.816409 
81 0.703841 0.346293 
82 0.210137 0.623806 
83 -0.0702986 -0.187268 
84 -0.153075 -0.138562 
85 0.235182 0.283136 
86 0.404005 0.419742 
87 -0.266928 -0.423384 
88 -0.471725 -0.121487 
89 0.0864867 0.200891 
90 0.810778 0.522754 
91 -0.115474 -0.277875 
92 -1.48934 -0.832844 
93 0.643484 0.25533 
94 0.0228672 -0.055147 
95 0.178412 0.00669112 
96 0.0786184 0.355989 
97 0.193406 0.107458 
98 -0.00915293 0.453496 
99 0.263779 0.36631 
100 -0.0189499 -0.0786126 
101 -0.895384 -1.12343 
102 0.166241 -1.00233 
103 -0.260262 -0.0652472 
104 -0.101079 -0.237125 
105 1.54273 0.610954 
106 0.000567944 0.00349763 
107 -0.288838 -0.283693 
108 -0.250869 0.0968978 
109 0.523042 0.398326 
110 0.0401449 0.163716 
111 0.0926024 -0.109733 
112 0.764706 0.215335 
113 -0.0818008 0.136858 
114 0.0549441 0.270464 
115 -0.112864 -0.807145 
116 -0.0219242 0.3902 
117 1.37109 0.39761 
118 0.0425584 0.0479872 
119 0.129672 -0.132916 
120 0.273057 0.11232 
121 0.333063 0.711377 
122 0.498084 0.314029 
123 -0.912961 -0.636267 
124 -0.00370236 -0.948184 
125 0.178861 0.2384 
126 0.784088 0.573424 
127 1.20326 0.863028 
128 -0.131917 -0.0210461 
129 0.458164 0.0957855 
130 0.334412 0.388408 
131 -0.494209 -0.430225 
132 -0.113536 -0.296607 
133 -1.38089 -0.582196 
134 0.185784 0.34098 
135 -0.0742298 0.307478 
136 0.278142 -0.291065 
137 -0.400902 -0.874339 
138 0.905284 0.629154 
139 0.47208 -0.0171331 
140 1.06446 0.689336 
141 -0.786042 0.499144 
142 0.788424 0.508445 
143 -0.173524 -0.304208 
144 -0.167605 0.360658 
145 -0.352448 -0.288916 
146 -0.128308 -0.14493 
147 -0.455368 -0.764399 
148 -0.156253 0.177828 
149 -0.166949 -0.0996045 
150 -1.90367 -0.931402 
151 -1.46289 -0.702481 
152 -0.635298 -0.433726 
153 1.09782 0.67239 
154 0.826613 0.806816 
155 -0.299514 0.779095 
156 -0.108009 -0.379389 
157 -0.164381 0.00433878 
158 -0.311163 -0.0468022 
159 0.581136 0.0945724 
160 -0.0500084 0.202831 
161 0.469863 0.451379 
162 0.129659 0.144747 
163 0.220686 -0.11946 
164 2.26605 0.939361 
165 0.135632 -0.132119 
166 1.93722 0.910863 
167 0.0733633 0.534082 
168 -0.182822 0.163854 
169 -0.523951 -0.233063 
170 0.341396 -0.659689 
171 1.02571 0.42632 
172 -2.12956 -1.11759 
173 0.433327 0.0930722 
174 -0.3134 -0.248705 
175 -1.43158 -1.19565 
176 0.337455 0.719721 
177 -0.191633 -0.180575 
178 -0.031616 0.131313 
179 -0.0767757 0.0998474 
180 0.673416 0.306724 
181 0.980276 0.369888 
182 1.65308 0.787158 
183 0.116809 0.280629 
184 -0.148945 -0.115328 
185 -0.237266 0.94424 
186 0.964752 0.592896 
187 2.06323 0.915785 
188 -0.367435 0.60818 
189 -0.238666 0.00766957 
190 -1.81336 -1.20978 
191 -0.011904 -0.838674 
192 0.646612 0.311792 
193 -0.911154 -0.173919 
194 0.00416974 0.0453605 
195 -0.177438 -0.376204 
196 -0.348652 -0.586326 
197 0.483971 0.513271 
198 0.503008 0.0597824 
199 0.0309817 0.0153032 
200 -0.266811 -0.37534 
201 -1.29985 -0.662587 
202 0.0358524 -0.331884 
203 -0.0329943 -0.706644 
204 -0.446527 -0.426708 
205 -0.556292 -0.519445 
206 0.45449 0.533491 
207 -0.162408 0.197116 
208 -0.766749 -0.400697 
209 0.013011 0.724736 
210 0.714364 0.600018 
211 -0.138611 -0.0848772 
212 0.0927967 -0.053033 
213 -0.287702 -0.249564 
214 0.395794 0.386551 
215 0.555755 0.53338 
216 -1.19608 -0.557111 
217 -0.101565 0.198145 
218 -0.560114 -0.347959 
219 0.386927 0.514585 
220 -0.513642 -0.594231 
221 -1.74067 -0.78269 
222 -0.435559 -0.196264 
223 -0.194608 -0.48427 
224 -0.765834 -0.453572 
225 0.65639 0.54232 
226 0.0658668 0.396727 
227 -0.451906 -0.194873 
228 -1.05395 -0.623018 
229 0.361189 0.391234 
230 -0.475072 -0.547328 
231 -0.766434 -0.38255 
232 -0.166271 -0.225385 
233 -0.354969 0.0383974 
234 -0.6723 -0.624913 
235 0.0246445 0.633659 
236 0.0147205 -0.0393046 
237 -0.263006 -0.0598798 
238 0.265619 0.278164 
239 -0.0109301 0.132529 
240 -1.59178 -0.903879 
241 -1.45959 -1.26215 
242 -0.3328 -0.200829 
243 -0.403199 -0.846473 
244 0.478765 0.149006 
245 0.359759 0.083684 
246 0.111989 0.153994 
247 0.0149796 -0.0352175 
248 0.343004 -0.0656832 
249 0.682482 0.346296 
250 -0.457275 -0.599488 
251 -1.37166 -0.613186 
252 -0.725558 -0.446743 
253 -0.467644 -0.116946 
254 -0.38859 0.012061 
255 0.208964 0.178312 
256 -0.211671 -0.325606 
257 0.277634 -0.00655869 
258 1.22071 0.36138 
259 1.10035 0.605449 
260 1.11189 0.653591 
261 -0.111077 -0.182582 
262 -0.503633 -0.113824 
263 -0.168907 -0.115716 
264 0.227316 -0.10767 
265 -0.262057 -0.407014 
266 0.876156 0.750134 
267 -0.0148629 0.228004 
268 -1.78839 -1.0689 
269 -0.616766 -0.150026 
270 0.425595 0.0497594 
271 -0.783598 -0.544709 
272 0.317034 0.344427 
273 0.530663 0.503106 
274 1.3441 0.997626 
275 -0.149528 -0.0917565 
276 0.269338 0.643253 
277 -0.750367 -0.68806 
278 -1.31256 -0.609435 
279 1.19668 0.574191 
280 0.479823 0.104242 
281 -0.643353 -0.36305 
282 -0.0327564 0.0815743 
283 -0.0945589 0.278947 
284 -0.01963 -0.517291 
285 -0.0687721 -0.418008 
286 0.235379 0.484209 
287 0.332734 -0.248027 
288 0.946326 0.409127 
289 -0.186254 -0.0753525 
290 0.331073 0.676614 
291 -0.860765 -0.705193 
292 -0.707994 -0.424399 
293 0.99545 0.526202 
294 0.411907 0.174988 
295 0.254873 0.595522 
296 -0.234046 -0.0476994 
297 -1.76185 -0.854132 
298 -0.204814 0.0375056 
299 -1.16991 -0.684808 
terror=7.52514
l1pen=36.5248
l2pen=222.142
-2.53069 -8.11998 -5.00707 7.67558 -0.407624 1.22849 -4.12153 -6.85475 -0.280201 -0.298909 
F= -2.53069* ( ( ( (x0 - (-5.79642))  -  (x0 - (-5.79642)) ) ) ) -8.11998* (1/(x2 - (9.67504))) -5.00707* (1/(x4 - (-10))) +7.67558* (1/(x3 - (-9.99817))) -0.407624* (1/(x2 - (9.67504))) +1.22849* ( (x3 /  ( ( (x1 - (-2.82593)) ) ) ) ) -4.12153* ( (1/(x2 - (9.67504)))  *  ( (x1 + x3) ) ) -6.85475* ( ( ( ( ( ( (1/(x0 - (-5.79642))) ) ) ) ) ) ) -0.280201* ( ( ( (x2 +  (x2 /  (1/(x0)) ) ) ) ) ) -0.298909* ( (x0 - x0)  +  ( ( (x1) ) ) ) 
2 2 1 5 0 -5.79642 5 0 -5.79642 0 1 6 2 9.67504 1.11258e-307 1.27946e-307 1.33509e-307 9.45684e-308 4.45036e-308 4.45038e-308 4.45038e-308 1.33509e-307 6 4 -10 9.45684e-308 4.45036e-308 4.45036e-308 4.45036e-308 4.45039e-308 1.39072e-307 9.45705e-308 1.27946e-307 6 3 -9.99817 4.45036e-308 4.45036e-308 4.45039e-308 4.45035e-308 4.45039e-308 4.45037e-308 4.45039e-308 1.22384e-307 6 2 9.67504 1.33509e-307 9.45684e-308 4.45039e-308 4.45039e-308 4.45038e-308 4.45036e-308 4.45037e-308 1.27946e-307 0 3 4 3 1 0 5 1 -2.82593 0 3 2 6 2 9.67504 1 0 4 1 4 3 0 1 1 0 3 2 0 6 0 -5.79642 0 0 1 0 2 0 4 2 3 4 2 6 0 0 1 4 0 4 0 2 3 1 4 1 
0 0 0 0 2 1 0 2 1 0 0 0 2 1 3211316 2097200 3342389 2097206 6422538 7602277 2097249 3276845 0 2 1 3342387 3211320 2949152 3014712 3211313 3735609 3407928 3211314 0 2 1 3604528 3604528 3473456 3211320 3604512 3538990 3473463 3670069 0 2 1 3014704 3145780 3538999 3342386 3538998 2097208 3014705 3276850 0 0 0 2 0 0 0 2 1 0 0 0 0 2 1 0 0 0 2 0 2 0 0 0 0 0 0 0 0 2 1 0 0 0 0 0 0 0 2 0 0 2 0 2 0 0 0 2 0 2 0 0 0 0 2 
