0 -1.4637 -0.868065 
1 0.508845 -0.305845 
2 0.0694206 0.732478 
3 -1.1624 -0.801872 
4 -1.68479 -0.94047 
5 -0.257612 -0.24491 
6 -0.501175 0.0554758 
7 -0.0784566 0.0267407 
8 0.632212 0.244509 
9 0.27365 0.32339 
10 0.215874 0.99816 
11 -0.189841 -0.495363 
12 -0.0657716 -1.0168 
13 -0.342885 -0.289186 
14 0.0950127 -0.683336 
15 0.00266578 0.346955 
16 0.734619 0.174781 
17 -0.342704 -0.0299381 
18 -0.802198 -0.727954 
19 0.752197 0.668853 
20 0.359727 -0.219824 
21 0.346099 0.870199 
22 0.448476 0.217566 
23 0.747828 0.362331 
24 -0.119013 0.482423 
25 -0.839706 -0.418181 
26 0.611156 0.842678 
27 -0.00971773 -0.376965 
28 0.0402982 0.1692 
29 0.0835155 0.553052 
30 -0.410824 -0.255 
31 0.462135 0.620831 
32 -1.47094 -0.768778 
33 0.0957534 0.946534 
34 1.25036 0.769536 
35 1.07566 0.420017 
36 0.107209 -0.0996485 
37 -0.307483 0.266803 
38 0.060431 -0.438533 
39 -0.414762 -0.13052 
40 0.307658 0.367959 
41 -0.317588 -0.877498 
42 -0.9845 -0.652022 
43 -0.645669 -0.536876 
44 0.199999 -0.0627975 
45 0.202874 0.784517 
46 0.0229235 0.357156 
47 0.21308 0.203259 
48 0.654627 0.728858 
49 1.44777 0.801556 
50 -0.330155 0.376455 
51 0.0866866 -0.280398 
52 -0.0167028 -0.633203 
53 0.27282 0.407722 
54 0.0417568 -0.151746 
55 -0.454308 -0.289251 
56 0.460299 0.501811 
57 -0.0790301 0.351296 
58 -0.367453 -0.392843 
59 0.68954 0.418023 
60 0.113753 0.665242 
61 0.938292 0.587356 
62 0.211686 -0.323771 
63 0.885838 0.559923 
64 -0.985257 -0.69938 
65 -0.518811 -1.26233 
66 0.0104028 0.414205 
67 1.99692 0.866174 
68 -1.08045 -0.573776 
69 -0.195839 -0.361549 
70 -0.500869 -0.750857 
71 -0.0315724 -0.139173 
72 -1.60692 -0.946069 
73 0.745277 0.336062 
74 1.24926 0.921068 
75 0.377869 -0.071543 
76 0.0154061 -0.0635935 
77 -0.493679 -0.634239 
78 0.506711 0.221031 
79 -0.0552833 -0.259406 
80 0.119721 -0.973453 
81 0.703841 0.478552 
82 0.210137 0.156952 
83 -0.0702986 -0.0748093 
84 -0.153075 0.37129 
85 0.235182 0.0752785 
86 0.404005 0.407967 
87 -0.266928 -0.27495 
88 -0.471725 0.0713862 
89 0.0864867 0.24472 
90 0.810778 0.835128 
91 -0.115474 -0.451219 
92 -1.48934 -0.81157 
93 0.643484 0.259005 
94 0.0228672 -0.348582 
95 0.178412 0.0640007 
96 0.0786184 0.151232 
97 0.193406 -0.0114482 
98 -0.00915293 0.308976 
99 0.263779 -0.0815183 
100 -0.0189499 -0.296925 
101 -0.895384 -1.23678 
102 0.166241 -0.780496 
103 -0.260262 0.431695 
104 -0.101079 -0.384467 
105 1.54273 0.846841 
106 0.000567944 -0.0177602 
107 -0.288838 -0.257853 
108 -0.250869 0.268944 
109 0.523042 0.16771 
110 0.0401449 0.345394 
111 0.0926024 -0.248934 
112 0.764706 0.391236 
113 -0.0818008 0.597656 
114 0.0549441 0.340083 
115 -0.112864 -0.589324 
116 -0.0219242 0.858959 
117 1.37109 0.333704 
118 0.0425584 -0.215049 
119 0.129672 -0.321518 
120 0.273057 -0.0775794 
121 0.333063 0.632385 
122 0.498084 0.241905 
123 -0.912961 -0.78025 
124 -0.00370236 -0.448261 
125 0.178861 0.0683205 
126 0.784088 0.786818 
127 1.20326 0.576007 
128 -0.131917 0.0811252 
129 0.458164 -0.00539127 
130 0.334412 0.693576 
131 -0.494209 -0.241355 
132 -0.113536 -0.390108 
133 -1.38089 -0.930732 
134 0.185784 0.600564 
135 -0.0742298 0.395618 
136 0.278142 0.0503447 
137 -0.400902 -0.379424 
138 0.905284 0.876061 
139 0.47208 0.181828 
140 1.06446 0.651289 
141 -0.786042 0.443215 
142 0.788424 0.781654 
143 -0.173524 -0.28967 
144 -0.167605 0.33834 
145 -0.352448 -0.832365 
146 -0.128308 -0.269491 
147 -0.455368 -1.03239 
148 -0.156253 0.511954 
149 -0.166949 0.171883 
150 -1.90367 -1.06763 
151 -1.46289 -1.18837 
152 -0.635298 -0.640908 
153 1.09782 0.93653 
154 0.826613 0.684983 
155 -0.299514 0.56595 
156 -0.108009 -0.44044 
157 -0.164381 -0.309563 
158 -0.311163 -0.276949 
159 0.581136 0.0535082 
160 -0.0500084 0.316096 
161 0.469863 0.756107 
162 0.129659 -0.0417128 
163 0.220686 0.228102 
164 2.26605 1.02931 
165 0.135632 -0.222593 
166 1.93722 0.820383 
167 0.0733633 0.385446 
168 -0.182822 0.0567389 
169 -0.523951 -0.737623 
170 0.341396 -0.607538 
171 1.02571 0.522242 
172 -2.12956 -1.13806 
173 0.433327 0.0606655 
174 -0.3134 -0.598928 
175 -1.43158 -0.890017 
176 0.337455 0.623109 
177 -0.191633 -0.378829 
178 -0.031616 0.128342 
179 -0.0767757 0.666414 
180 0.673416 0.356415 
181 0.980276 0.506471 
182 1.65308 0.868982 
183 0.116809 0.819037 
184 -0.148945 0.0341424 
185 -0.237266 0.548668 
186 0.964752 0.686406 
187 2.06323 0.939583 
188 -0.367435 0.307624 
189 -0.238666 0.496218 
190 -1.81336 -1.01503 
191 -0.011904 -0.42776 
192 0.646612 0.155463 
193 -0.911154 -0.421706 
194 0.00416974 -0.328111 
195 -0.177438 -0.169753 
196 -0.348652 -0.633531 
197 0.483971 0.359205 
198 0.503008 -0.137628 
199 0.0309817 -0.183245 
200 -0.266811 -0.321463 
201 -1.29985 -0.586802 
202 0.0358524 -0.426474 
203 -0.0329943 -0.698288 
204 -0.446527 -0.450839 
205 -0.556292 -0.759815 
206 0.45449 0.901401 
207 -0.162408 0.041683 
208 -0.766749 -0.705895 
209 0.013011 0.439014 
210 0.714364 1.01855 
211 -0.138611 0.132039 
212 0.0927967 -0.158743 
213 -0.287702 -0.24386 
214 0.395794 0.464456 
215 0.555755 0.386454 
216 -1.19608 -0.529489 
217 -0.101565 0.296207 
218 -0.560114 -0.986937 
219 0.386927 0.551849 
220 -0.513642 -0.591172 
221 -1.74067 -0.985527 
222 -0.435559 -0.28625 
223 -0.194608 -0.503164 
224 -0.765834 -0.592958 
225 0.65639 0.76296 
226 0.0658668 0.0320862 
227 -0.451906 -0.147688 
228 -1.05395 -0.446 
229 0.361189 0.327337 
230 -0.475072 -0.576004 
231 -0.766434 -0.396543 
232 -0.166271 0.0935975 
233 -0.354969 0.384074 
234 -0.6723 -0.605968 
235 0.0246445 0.408956 
236 0.0147205 -0.288936 
237 -0.263006 -0.139056 
238 0.265619 0.292026 
239 -0.0109301 -0.415035 
240 -1.59178 -1.01462 
241 -1.45959 -1.27838 
242 -0.3328 -0.657461 
243 -0.403199 -0.50067 
244 0.478765 0.104311 
245 0.359759 -0.166097 
246 0.111989 0.134973 
247 0.0149796 0.046985 
248 0.343004 -0.336974 
249 0.682482 0.236102 
250 -0.457275 -0.556669 
251 -1.37166 -0.750515 
252 -0.725558 -0.910455 
253 -0.467644 -0.113796 
254 -0.38859 0.0250573 
255 0.208964 0.071177 
256 -0.211671 -0.298617 
257 0.277634 -0.384796 
258 1.22071 0.385348 
259 1.10035 0.690169 
260 1.11189 0.608303 
261 -0.111077 -0.425967 
262 -0.503633 0.10863 
263 -0.168907 0.222707 
264 0.227316 -0.189748 
265 -0.262057 -0.581943 
266 0.876156 0.705103 
267 -0.0148629 0.600032 
268 -1.78839 -1.08915 
269 -0.616766 0.0995213 
270 0.425595 -0.159052 
271 -0.783598 -0.414045 
272 0.317034 0.158861 
273 0.530663 0.753868 
274 1.3441 0.788332 
275 -0.149528 -0.747637 
276 0.269338 0.447057 
277 -0.750367 -0.487622 
278 -1.31256 -0.920312 
279 1.19668 0.614746 
280 0.479823 -0.0550059 
281 -0.643353 -0.543551 
282 -0.0327564 0.568258 
283 -0.0945589 0.307013 
284 -0.01963 -0.263024 
285 -0.0687721 -0.449339 
286 0.235379 0.731587 
287 0.332734 0.000232684 
288 0.946326 0.514927 
289 -0.186254 0.050295 
290 0.331073 0.658676 
291 -0.860765 -0.702046 
292 -0.707994 -0.219231 
293 0.99545 0.769931 
294 0.411907 0.252423 
295 0.254873 0.807917 
296 -0.234046 0.237295 
297 -1.76185 -1.01656 
298 -0.204814 0.48821 
299 -1.16991 -0.970628 
terror=7.91822
l1pen=48.7676
l2pen=285.489
5.47713 4.01679 -4.82749 -4.55036 7.38538 -4.99725 -9.35696 0.943259 -2.7781 -4.43487 
F= 5.47713* (1/(x4 - (3.69172))) +4.01679*x3-4.82749* (1/(x4 - (3.69172))) -4.55036* ( (1/(x4 - (3.69172)))  -  ( (1/(x1 - (-9.99818))) ) ) +7.38538* (1/(x3 - (3.75347))) -4.99725* (1/(x0 - (-4.41965))) -9.35696* ( (1/(x0 - (-4.41965)))  *  ( ( ( (x0 - (-4.41965)) ) ) ) ) +0.943259* (1/(x0 - (-4.41965))) -2.7781* ( ( ( (1/(x3 - (3.75347)))  +  ( (x3 - (3.75347)) ) ) ) ) -4.43487* (1/(x1 - (-9.99818))) 
6 4 3.69172 4.6706e-310 1.00131e-307 9.45684e-308 4.45036e-308 4.45036e-308 1.33509e-307 1.11258e-307 1.27946e-307 4 3 4.45036e-308 1.05696e-307 1.33509e-307 1.27946e-307 1.11258e-307 1.05695e-307 1.16821e-307 1.33509e-307 9.45684e-308 6 4 3.69172 1.11259e-307 1.11259e-307 1.39071e-307 1.39072e-307 4.45036e-308 1.16821e-307 1.16821e-307 8.90071e-308 1 6 4 3.69172 0 6 1 -9.99818 0 0 6 6 3 3.75347 1.33509e-307 1.11258e-307 1.27947e-307 4.45036e-308 1.05696e-307 1.33509e-307 1.16821e-307 1.00133e-307 6 0 -4.41965 1.11258e-307 8.90073e-308 4.45037e-308 1.16821e-307 1.22384e-307 1.33509e-307 9.45684e-308 4.45037e-308 2 6 0 -4.41965 1 3 2 5 0 -4.41965 4 6 0 -4.41965 9.45684e-308 1.22382e-307 9.45684e-308 4.45038e-308 1.22384e-307 8.9007e-308 1.1682e-307 8.90077e-308 2 0 0 6 3 3.75347 0 5 3 3.75347 0 6 1 -9.99818 1.22383e-307 1.00131e-307 9.45684e-308 4.45037e-308 1.05696e-307 1.27946e-307 1.11258e-307 1.27946e-307 
0 2 1 32699 3670048 3407925 3735584 3670073 3211296 3407925 2097203 0 2 3211296 3342390 2097206 3211313 3342389 3211296 3211315 2097203 3276849 0 2 1 2097249 3014709 3604532 3211319 3538994 3342386 2097209 3014708 0 0 2 1 0 0 2 1 0 0 0 0 2 1 3342384 3735605 3407920 2097204 3014711 3670067 3342389 3276856 0 2 1 3735598 3604537 3407922 3407927 3342386 2949152 3014713 3473459 0 0 2 1 0 0 0 0 2 1 0 0 2 1 3735604 3407929 2949152 3014708 3342388 3670068 3604534 3473460 0 0 0 0 2 1 0 0 2 1 0 0 2 1 3670065 3735601 3473463 3407904 3211310 3670072 3604530 3407925 
