0 -1.4637 -0.916685 
1 0.508845 -0.407416 
2 0.0694206 0.640476 
3 -1.1624 -0.765595 
4 -1.68479 -0.896025 
5 -0.257612 -0.38598 
6 -0.501175 -0.0783186 
7 -0.0784566 0.109553 
8 0.632212 0.203061 
9 0.27365 0.231923 
10 0.215874 0.635979 
11 -0.189841 -0.288239 
12 -0.0657716 -0.616352 
13 -0.342885 -0.383778 
14 0.0950127 -0.553227 
15 0.00266578 0.0347568 
16 0.734619 0.0448499 
17 -0.342704 -0.213909 
18 -0.802198 -0.782597 
19 0.752197 0.627646 
20 0.359727 -0.155269 
21 0.346099 0.46296 
22 0.448476 0.366196 
23 0.747828 0.314726 
24 -0.119013 0.140998 
25 -0.839706 -0.5695 
26 0.611156 0.627852 
27 -0.00971773 -0.00684181 
28 0.0402982 0.105263 
29 0.0835155 0.225475 
30 -0.410824 -0.501038 
31 0.462135 0.499087 
32 -1.47094 -0.930644 
33 0.0957534 0.415941 
34 1.25036 0.767882 
35 1.07566 0.276647 
36 0.107209 -0.402889 
37 -0.307483 0.453258 
38 0.060431 -0.239609 
39 -0.414762 -0.368447 
40 0.307658 0.164906 
41 -0.317588 -0.526277 
42 -0.9845 -0.80403 
43 -0.645669 -0.551083 
44 0.199999 0.147789 
45 0.202874 0.51663 
46 0.0229235 0.513454 
47 0.21308 0.0760143 
48 0.654627 0.946564 
49 1.44777 0.868332 
50 -0.330155 0.0205982 
51 0.0866866 0.124868 
52 -0.0167028 -0.46252 
53 0.27282 0.429064 
54 0.0417568 -0.0880812 
55 -0.454308 -0.459317 
56 0.460299 0.381754 
57 -0.0790301 0.589456 
58 -0.367453 -0.445461 
59 0.68954 0.243502 
60 0.113753 0.340189 
61 0.938292 0.661307 
62 0.211686 -0.149808 
63 0.885838 0.65922 
64 -0.985257 -0.694298 
65 -0.518811 -0.855742 
66 0.0104028 -0.0162382 
67 1.99692 1.11542 
68 -1.08045 -0.750107 
69 -0.195839 -0.273985 
70 -0.500869 -1.04541 
71 -0.0315724 -0.205038 
72 -1.60692 -0.953749 
73 0.745277 0.319992 
74 1.24926 0.799345 
75 0.377869 0.0470697 
76 0.0154061 0.0367778 
77 -0.493679 -0.80765 
78 0.506711 0.523433 
79 -0.0552833 -0.21076 
80 0.119721 -0.665446 
81 0.703841 0.491809 
82 0.210137 0.467638 
83 -0.0702986 -0.113592 
84 -0.153075 0.1471 
85 0.235182 -0.1503 
86 0.404005 0.203165 
87 -0.266928 0.0614641 
88 -0.471725 -0.228473 
89 0.0864867 0.166684 
90 0.810778 0.663432 
91 -0.115474 -0.232332 
92 -1.48934 -0.931661 
93 0.643484 0.452338 
94 0.0228672 -0.46488 
95 0.178412 0.0548088 
96 0.0786184 0.280969 
97 0.193406 -0.136162 
98 -0.00915293 0.519274 
99 0.263779 0.22754 
100 -0.0189499 -0.126768 
101 -0.895384 -0.923152 
102 0.166241 -0.901557 
103 -0.260262 0.28644 
104 -0.101079 -0.414364 
105 1.54273 0.803401 
106 0.000567944 0.262475 
107 -0.288838 -0.374076 
108 -0.250869 0.229929 
109 0.523042 0.34586 
110 0.0401449 0.193249 
111 0.0926024 -0.263284 
112 0.764706 0.245597 
113 -0.0818008 0.10594 
114 0.0549441 0.0537422 
115 -0.112864 -0.863474 
116 -0.0219242 0.385419 
117 1.37109 0.330642 
118 0.0425584 -0.0159105 
119 0.129672 -0.0514673 
120 0.273057 0.0839678 
121 0.333063 0.6609 
122 0.498084 0.0517486 
123 -0.912961 -0.906586 
124 -0.00370236 -0.734696 
125 0.178861 0.398292 
126 0.784088 0.755835 
127 1.20326 0.868467 
128 -0.131917 -0.049547 
129 0.458164 -0.165734 
130 0.334412 0.571287 
131 -0.494209 -0.321088 
132 -0.113536 -0.440249 
133 -1.38089 -0.970468 
134 0.185784 0.324699 
135 -0.0742298 0.248483 
136 0.278142 -0.206608 
137 -0.400902 -0.53506 
138 0.905284 0.677421 
139 0.47208 0.304486 
140 1.06446 0.573852 
141 -0.786042 0.493914 
142 0.788424 0.601959 
143 -0.173524 -0.0975377 
144 -0.167605 0.411142 
145 -0.352448 -0.617606 
146 -0.128308 -0.363305 
147 -0.455368 -0.638662 
148 -0.156253 0.246911 
149 -0.166949 -0.0754992 
150 -1.90367 -1.1083 
151 -1.46289 -1.08391 
152 -0.635298 -0.630708 
153 1.09782 0.791153 
154 0.826613 0.723739 
155 -0.299514 0.792417 
156 -0.108009 -0.340316 
157 -0.164381 0.0610601 
158 -0.311163 0.0649618 
159 0.581136 0.0843875 
160 -0.0500084 0.181273 
161 0.469863 0.508147 
162 0.129659 0.132197 
163 0.220686 0.379517 
164 2.26605 1.14921 
165 0.135632 -0.180532 
166 1.93722 1.02766 
167 0.0733633 0.656856 
168 -0.182822 0.290665 
169 -0.523951 -0.47144 
170 0.341396 -0.473398 
171 1.02571 0.690258 
172 -2.12956 -1.30409 
173 0.433327 0.33063 
174 -0.3134 -0.650988 
175 -1.43158 -1.01871 
176 0.337455 0.578458 
177 -0.191633 -0.217503 
178 -0.031616 0.277729 
179 -0.0767757 0.323755 
180 0.673416 0.45853 
181 0.980276 0.407675 
182 1.65308 0.837799 
183 0.116809 0.486791 
184 -0.148945 -0.159926 
185 -0.237266 0.83976 
186 0.964752 0.545315 
187 2.06323 1.04707 
188 -0.367435 0.549281 
189 -0.238666 0.269193 
190 -1.81336 -1.17012 
191 -0.011904 -0.586258 
192 0.646612 0.0697187 
193 -0.911154 -0.622842 
194 0.00416974 -0.0725791 
195 -0.177438 -0.570399 
196 -0.348652 -0.531148 
197 0.483971 0.457587 
198 0.503008 -0.186596 
199 0.0309817 0.136079 
200 -0.266811 -0.201513 
201 -1.29985 -0.248925 
202 0.0358524 -0.233637 
203 -0.0329943 -0.359832 
204 -0.446527 -0.356662 
205 -0.556292 -0.599445 
206 0.45449 0.710877 
207 -0.162408 0.212136 
208 -0.766749 -0.636686 
209 0.013011 0.728408 
210 0.714364 0.783742 
211 -0.138611 -0.111768 
212 0.0927967 -0.149967 
213 -0.287702 -0.170571 
214 0.395794 0.359398 
215 0.555755 0.526974 
216 -1.19608 -0.714115 
217 -0.101565 0.42136 
218 -0.560114 -0.676856 
219 0.386927 0.37821 
220 -0.513642 -0.890986 
221 -1.74067 -1.00277 
222 -0.435559 -0.343159 
223 -0.194608 -0.478647 
224 -0.765834 -0.741381 
225 0.65639 0.571196 
226 0.0658668 0.353382 
227 -0.451906 -0.344651 
228 -1.05395 -0.132061 
229 0.361189 0.528529 
230 -0.475072 -0.551329 
231 -0.766434 -0.546985 
232 -0.166271 -0.115907 
233 -0.354969 0.1905 
234 -0.6723 -0.474585 
235 0.0246445 0.64897 
236 0.0147205 -0.100668 
237 -0.263006 -0.0296104 
238 0.265619 0.338167 
239 -0.0109301 -0.0127579 
240 -1.59178 -1.09773 
241 -1.45959 -1.10035 
242 -0.3328 -0.417905 
243 -0.403199 -0.75653 
244 0.478765 0.174852 
245 0.359759 -0.308127 
246 0.111989 0.11505 
247 0.0149796 0.066631 
248 0.343004 -0.126867 
249 0.682482 0.522633 
250 -0.457275 -0.641858 
251 -1.37166 -0.83053 
252 -0.725558 -0.660897 
253 -0.467644 -0.0107738 
254 -0.38859 0.111493 
255 0.208964 -0.0488436 
256 -0.211671 -0.613588 
257 0.277634 -0.0781881 
258 1.22071 0.336513 
259 1.10035 0.498344 
260 1.11189 0.827818 
261 -0.111077 -0.0547161 
262 -0.503633 -0.100872 
263 -0.168907 0.469751 
264 0.227316 -0.0244281 
265 -0.262057 -0.510542 
266 0.876156 0.74632 
267 -0.0148629 0.23736 
268 -1.78839 -1.31517 
269 -0.616766 0.153691 
270 0.425595 -0.0624434 
271 -0.783598 -0.525204 
272 0.317034 0.314333 
273 0.530663 0.579727 
274 1.3441 0.953193 
275 -0.149528 -0.398617 
276 0.269338 0.6342 
277 -0.750367 -0.682131 
278 -1.31256 -0.871468 
279 1.19668 0.673311 
280 0.479823 0.0357474 
281 -0.643353 -0.609376 
282 -0.0327564 0.32066 
283 -0.0945589 0.191133 
284 -0.01963 -0.655015 
285 -0.0687721 -0.240257 
286 0.235379 0.382827 
287 0.332734 -0.150529 
288 0.946326 0.644381 
289 -0.186254 -0.156404 
290 0.331073 0.619537 
291 -0.860765 -1.00166 
292 -0.707994 -0.265426 
293 0.99545 0.692959 
294 0.411907 0.366449 
295 0.254873 0.372674 
296 -0.234046 0.105435 
297 -1.76185 -1.10003 
298 -0.204814 0.239501 
299 -1.16991 -0.799283 
terror=7.17488
l1pen=44.4281
l2pen=315.26
0.568411 5.91672 -4.5254 -4.45542 -10 -0.401584 -2.03081 0.523859 9.86641 -6.13948 
F= 0.568411*x0+5.91672* ( ( (x3 /  (x3 - (-8.53637)) )  +  (1/(x2 - (-8.60422))) ) ) -4.5254* (1/(x4 - (4.68591))) -4.45542* (1/(x3 - (-8.53637))) -10* ( ( ( (x2 - (-8.60422))  -  ( (x2 - (-8.60422)) ) ) ) ) -0.401584*x0-2.03081* (1/(x0 - (-6.64568))) +0.523859* (1/(x4 - (4.68591))) +9.86641* ( (1/(x3 - (-8.53637)))  *  (x2 /  (x4 - (4.68591)) ) ) -6.13948* (1/(x3 - (-8.53637))) 
4 0 4.68596e-310 4.68596e-310 1.11258e-307 8.90073e-308 1.00132e-307 1.22382e-307 9.45684e-308 4.45036e-308 4.45038e-308 2 0 3 4 3 5 3 -8.53637 6 2 -8.60422 6 4 4.68591 1.00133e-307 4.45036e-308 9.45684e-308 4.45039e-308 4.45038e-308 4.45039e-308 1.00133e-307 1.05695e-307 6 3 -8.53637 9.45684e-308 4.45035e-308 1.27947e-307 1.11258e-307 1.33509e-307 9.45705e-308 1.00133e-307 1.22383e-307 1 1 1 5 2 -8.60422 0 5 2 -8.60422 3 4 0 1.27944e-307 1.39071e-307 1.11256e-307 1.16819e-307 9.45684e-308 4.45035e-308 1.22384e-307 8.90072e-308 8.90075e-308 6 0 -6.64568 1.22383e-307 1.11258e-307 1.39072e-307 9.45698e-308 1.05694e-307 1.33507e-307 9.45684e-308 4.45035e-308 6 4 4.68591 4.45036e-308 4.45039e-308 4.45037e-308 4.45039e-308 4.45036e-308 9.45702e-308 8.90077e-308 8.90071e-308 2 6 3 -8.53637 3 4 2 5 4 4.68591 1.05696e-307 6 3 -8.53637 1.33509e-307 1.39071e-307 1.27944e-307 9.45684e-308 9.45684e-308 4.45039e-308 1.39072e-307 1.39071e-307 
0 2 2026990560 32653 3211313 3407925 3211296 3342388 2097209 3211313 3407929 0 0 0 0 2 0 2 1 0 2 1 0 2 1 3407928 3211313 3276852 2097201 3014709 3211321 3604534 3604529 0 2 1 3473454 3473458 3735603 3145785 3145785 2949152 3014708 3473460 0 0 0 0 2 1 0 0 2 1 0 0 2 3473457 3407928 3211313 2097204 3276845 3145774 3145779 3211320 3735600 0 2 1 3342386 3473464 3670072 3407923 3735584 3670062 3538998 3211316 0 2 1 3014710 3342385 3407929 3538999 3670071 2097202 6488074 7209071 0 0 2 1 0 0 2 0 2 1 3735607 0 2 1 3670061 3538990 3407920 3211314 3342390 3276857 2949152 3014712 
