0 -1.4637 -1.01757 
1 0.508845 -0.506938 
2 0.0694206 0.886803 
3 -1.1624 -0.86247 
4 -1.68479 -1.02124 
5 -0.257612 -0.392418 
6 -0.501175 -0.076441 
7 -0.0784566 0.0402183 
8 0.632212 0.171702 
9 0.27365 0.231891 
10 0.215874 0.798513 
11 -0.189841 -0.406118 
12 -0.0657716 -0.644619 
13 -0.342885 -0.405983 
14 0.0950127 -0.564749 
15 0.00266578 0.00527922 
16 0.734619 0.0456698 
17 -0.342704 -0.290607 
18 -0.802198 -0.766617 
19 0.752197 0.696405 
20 0.359727 -0.228504 
21 0.346099 0.541159 
22 0.448476 0.384898 
23 0.747828 0.326037 
24 -0.119013 0.160816 
25 -0.839706 -0.605328 
26 0.611156 0.814922 
27 -0.00971773 -0.0668314 
28 0.0402982 0.0634398 
29 0.0835155 0.230195 
30 -0.410824 -0.606346 
31 0.462135 0.496374 
32 -1.47094 -0.941403 
33 0.0957534 0.517248 
34 1.25036 0.962919 
35 1.07566 0.260192 
36 0.107209 -0.40287 
37 -0.307483 0.453798 
38 0.060431 -0.340549 
39 -0.414762 -0.460309 
40 0.307658 0.155055 
41 -0.317588 -0.566463 
42 -0.9845 -0.898372 
43 -0.645669 -0.630513 
44 0.199999 0.0691419 
45 0.202874 0.592429 
46 0.0229235 0.515363 
47 0.21308 0.0439282 
48 0.654627 1.10548 
49 1.44777 0.992981 
50 -0.330155 0.0491116 
51 0.0866866 -0.0385194 
52 -0.0167028 -0.453252 
53 0.27282 0.402703 
54 0.0417568 -0.164346 
55 -0.454308 -0.480394 
56 0.460299 0.436658 
57 -0.0790301 0.579676 
58 -0.367453 -0.436009 
59 0.68954 0.214534 
60 0.113753 0.394416 
61 0.938292 0.69953 
62 0.211686 -0.206164 
63 0.885838 0.609466 
64 -0.985257 -0.826371 
65 -0.518811 -0.712798 
66 0.0104028 0.0142403 
67 1.99692 1.23411 
68 -1.08045 -0.82405 
69 -0.195839 -0.36157 
70 -0.500869 -0.841411 
71 -0.0315724 -0.22028 
72 -1.60692 -0.861785 
73 0.745277 0.34994 
74 1.24926 1.06818 
75 0.377869 -0.0135187 
76 0.0154061 -0.037409 
77 -0.493679 -0.612896 
78 0.506711 0.413105 
79 -0.0552833 -0.268642 
80 0.119721 -0.542501 
81 0.703841 0.463336 
82 0.210137 0.465636 
83 -0.0702986 -0.13453 
84 -0.153075 0.160132 
85 0.235182 -0.207285 
86 0.404005 0.170728 
87 -0.266928 -0.0140095 
88 -0.471725 -0.168693 
89 0.0864867 0.118984 
90 0.810778 0.717893 
91 -0.115474 -0.357885 
92 -1.48934 -0.951927 
93 0.643484 0.390968 
94 0.0228672 -0.518817 
95 0.178412 0.00176942 
96 0.0786184 0.229702 
97 0.193406 -0.184658 
98 -0.00915293 0.492593 
99 0.263779 0.166614 
100 -0.0189499 -0.226785 
101 -0.895384 -0.739655 
102 0.166241 -0.827442 
103 -0.260262 0.27692 
104 -0.101079 -0.499863 
105 1.54273 0.840867 
106 0.000567944 0.208813 
107 -0.288838 -0.45809 
108 -0.250869 0.171944 
109 0.523042 0.361145 
110 0.0401449 0.163144 
111 0.0926024 -0.31035 
112 0.764706 0.312982 
113 -0.0818008 0.160032 
114 0.0549441 0.0183321 
115 -0.112864 -0.916993 
116 -0.0219242 0.486709 
117 1.37109 0.415764 
118 0.0425584 -0.156242 
119 0.129672 -0.111146 
120 0.273057 0.00297862 
121 0.333063 0.825535 
122 0.498084 -0.005534 
123 -0.912961 -0.87705 
124 -0.00370236 -0.730212 
125 0.178861 0.348313 
126 0.784088 0.814347 
127 1.20326 0.909231 
128 -0.131917 -0.0650752 
129 0.458164 -0.240487 
130 0.334412 0.624567 
131 -0.494209 -0.432184 
132 -0.113536 -0.48223 
133 -1.38089 -0.904219 
134 0.185784 0.339098 
135 -0.0742298 0.242287 
136 0.278142 -0.25074 
137 -0.400902 -0.646188 
138 0.905284 0.722603 
139 0.47208 0.258073 
140 1.06446 0.585734 
141 -0.786042 0.494145 
142 0.788424 0.645014 
143 -0.173524 -0.172212 
144 -0.167605 0.3824 
145 -0.352448 -0.735532 
146 -0.128308 -0.459732 
147 -0.455368 -0.681792 
148 -0.156253 0.2501 
149 -0.166949 -0.118124 
150 -1.90367 -1.06305 
151 -1.46289 -1.00787 
152 -0.635298 -0.630521 
153 1.09782 0.979046 
154 0.826613 0.970522 
155 -0.299514 0.875521 
156 -0.108009 -0.435155 
157 -0.164381 0.00357286 
158 -0.311163 -0.100921 
159 0.581136 0.0410289 
160 -0.0500084 0.146454 
161 0.469863 0.547082 
162 0.129659 0.0318319 
163 0.220686 0.330733 
164 2.26605 1.24383 
165 0.135632 -0.237388 
166 1.93722 1.11409 
167 0.0733633 0.683838 
168 -0.182822 0.255513 
169 -0.523951 -0.637614 
170 0.341396 -0.603744 
171 1.02571 0.659047 
172 -2.12956 -1.18266 
173 0.433327 0.250826 
174 -0.3134 -0.66963 
175 -1.43158 -1.03966 
176 0.337455 0.711514 
177 -0.191633 -0.306278 
178 -0.031616 0.234694 
179 -0.0767757 0.419763 
180 0.673416 0.418808 
181 0.980276 0.533154 
182 1.65308 0.982809 
183 0.116809 0.683274 
184 -0.148945 -0.234747 
185 -0.237266 0.976676 
186 0.964752 0.721387 
187 2.06323 1.19313 
188 -0.367435 0.568643 
189 -0.238666 0.286469 
190 -1.81336 -1.27965 
191 -0.011904 -0.6024 
192 0.646612 0.0199254 
193 -0.911154 -0.635788 
194 0.00416974 -0.210311 
195 -0.177438 -0.427635 
196 -0.348652 -0.540143 
197 0.483971 0.523382 
198 0.503008 -0.242326 
199 0.0309817 0.06408 
200 -0.266811 -0.312325 
201 -1.29985 -0.276529 
202 0.0358524 -0.26165 
203 -0.0329943 -0.384283 
204 -0.446527 -0.363114 
205 -0.556292 -0.611637 
206 0.45449 0.827416 
207 -0.162408 0.0862415 
208 -0.766749 -0.711099 
209 0.013011 0.790391 
210 0.714364 1.06747 
211 -0.138611 -0.172788 
212 0.0927967 -0.232552 
213 -0.287702 -0.177082 
214 0.395794 0.34481 
215 0.555755 0.534899 
216 -1.19608 -0.690233 
217 -0.101565 0.334638 
218 -0.560114 -0.737078 
219 0.386927 0.371676 
220 -0.513642 -0.789652 
221 -1.74067 -1.11705 
222 -0.435559 -0.431923 
223 -0.194608 -0.588222 
224 -0.765834 -0.780939 
225 0.65639 0.691808 
226 0.0658668 0.300917 
227 -0.451906 -0.383296 
228 -1.05395 -0.129528 
229 0.361189 0.521071 
230 -0.475072 -0.562898 
231 -0.766434 -0.648839 
232 -0.166271 -0.175582 
233 -0.354969 0.191775 
234 -0.6723 -0.58398 
235 0.0246445 0.68081 
236 0.0147205 -0.216975 
237 -0.263006 -0.146616 
238 0.265619 0.311339 
239 -0.0109301 -0.157096 
240 -1.59178 -0.991535 
241 -1.45959 -0.927222 
242 -0.3328 -0.57797 
243 -0.403199 -0.55486 
244 0.478765 0.141335 
245 0.359759 -0.377731 
246 0.111989 0.0550306 
247 0.0149796 0.00226161 
248 0.343004 -0.205147 
249 0.682482 0.448447 
250 -0.457275 -0.703349 
251 -1.37166 -0.946731 
252 -0.725558 -0.777615 
253 -0.467644 -0.133769 
254 -0.38859 0.00697093 
255 0.208964 -0.0886345 
256 -0.211671 -0.611071 
257 0.277634 -0.161425 
258 1.22071 0.413873 
259 1.10035 0.620137 
260 1.11189 0.828334 
261 -0.111077 -0.0969728 
262 -0.503633 -0.0679065 
263 -0.168907 0.366269 
264 0.227316 -0.0864667 
265 -0.262057 -0.54202 
266 0.876156 0.939279 
267 -0.0148629 0.269852 
268 -1.78839 -1.20672 
269 -0.616766 0.0623231 
270 0.425595 -0.138076 
271 -0.783598 -0.584355 
272 0.317034 0.278288 
273 0.530663 0.746387 
274 1.3441 1.12092 
275 -0.149528 -0.566097 
276 0.269338 0.670934 
277 -0.750367 -0.695967 
278 -1.31256 -0.833075 
279 1.19668 0.677428 
280 0.479823 -0.0197393 
281 -0.643353 -0.625383 
282 -0.0327564 0.405665 
283 -0.0945589 0.151483 
284 -0.01963 -0.512399 
285 -0.0687721 -0.322634 
286 0.235379 0.429287 
287 0.332734 -0.218623 
288 0.946326 0.619912 
289 -0.186254 -0.216106 
290 0.331073 0.671804 
291 -0.860765 -0.887412 
292 -0.707994 -0.247713 
293 0.99545 0.725954 
294 0.411907 0.297222 
295 0.254873 0.432659 
296 -0.234046 0.0627418 
297 -1.76185 -1.14244 
298 -0.204814 0.254789 
299 -1.16991 -0.868946 
terror=7.24569
l1pen=37.7284
l2pen=206.389
-5.47283 -2.26116 -0.708876 -4.02395 -2.19714 3.85447 -9.43528 1.50783 1.95666 -6.31023 
F= -5.47283* ( (x3 /  ( ( (x0 - (5.24384)) ) ) ) ) -2.26116* (x2 - (-1.25117)) -0.708876* ( ( ( (1/(x0 - (5.24384)))  *  ( (x0) ) ) ) ) -4.02395*x4-2.19714* (1/(x4 - (5.56866))) +3.85447*x4-9.43528* (1/(x4 - (5.56866))) +1.50783* ( (1/(x3 - (-4.08943))) ) +1.95666*x2-6.31023* ( (1/(x3 - (-4.08943)))  *  (1/(x0 - (5.24384))) ) 
3 3 4 3 2 1 5 0 5.24384 5 2 -1.25117 1.22383e-307 1.39072e-307 9.45701e-308 1.39072e-307 1.05695e-307 1.22382e-307 0 3 2 6 0 5.24384 2 5 0 4 4 9.45684e-308 4.45038e-308 8.90074e-308 8.9007e-308 1.27946e-307 1.33509e-307 1.27944e-307 6 4 5.56866 4.45037e-308 1.11258e-307 1.05695e-307 1.16821e-307 1.39071e-307 1.33509e-307 4 4 4.45037e-308 4.45038e-308 4.45039e-308 1.33509e-307 1.16821e-307 1.00133e-307 1.39072e-307 6 4 5.56866 1.39072e-307 1.05695e-307 9.45698e-308 1.16819e-307 1.11256e-307 1.3907e-307 0 6 3 -4.08943 1 2 3 2 1 4 2 8.90076e-308 9.45701e-308 1.27946e-307 9.457e-308 1.33509e-307 1.16821e-307 9.45684e-308 2 6 3 -4.08943 6 0 5.24384 1.05695e-307 9.45684e-308 
0 0 0 2 0 0 0 2 1 0 2 1 3211317 3145760 3276832 3538992 3211296 3473456 0 0 0 0 2 1 0 0 2 0 2 3407924 2097200 3276845 3276846 3211318 3538993 3670068 0 2 1 3145783 3670072 3538999 3407920 2097201 3407917 0 2 3473465 3145777 3538998 2949152 3014706 3735601 3211319 0 2 1 3014707 3473464 3407924 3473462 3670070 2097207 0 0 2 1 0 0 0 0 0 0 2 3407921 3211296 3735598 3538997 3538998 3342387 3539000 0 0 2 1 0 2 1 6488074 7209071 
