0 -1.4637 -0.996225 
1 0.508845 -0.63677 
2 0.0694206 0.544842 
3 -1.1624 -0.850185 
4 -1.68479 -1.08622 
5 -0.257612 -0.238251 
6 -0.501175 -0.0979557 
7 -0.0784566 0.164159 
8 0.632212 0.265877 
9 0.27365 0.154814 
10 0.215874 0.518775 
11 -0.189841 -0.471835 
12 -0.0657716 -0.557171 
13 -0.342885 -0.149059 
14 0.0950127 -0.578743 
15 0.00266578 0.115686 
16 0.734619 -0.06966 
17 -0.342704 -0.255134 
18 -0.802198 -0.512935 
19 0.752197 0.441193 
20 0.359727 -0.120899 
21 0.346099 0.605189 
22 0.448476 0.302249 
23 0.747828 0.372668 
24 -0.119013 0.305693 
25 -0.839706 -0.480931 
26 0.611156 0.503676 
27 -0.00971773 0.0450826 
28 0.0402982 0.280827 
29 0.0835155 0.38981 
30 -0.410824 -0.65196 
31 0.462135 0.52686 
32 -1.47094 -0.886213 
33 0.0957534 0.638542 
34 1.25036 0.581221 
35 1.07566 0.562447 
36 0.107209 -0.597812 
37 -0.307483 0.730173 
38 0.060431 -0.326801 
39 -0.414762 -0.5088 
40 0.307658 0.16313 
41 -0.317588 -0.561463 
42 -0.9845 -0.944963 
43 -0.645669 -0.583754 
44 0.199999 0.164561 
45 0.202874 0.417319 
46 0.0229235 0.689187 
47 0.21308 0.0109211 
48 0.654627 0.983692 
49 1.44777 0.63939 
50 -0.330155 -0.00825998 
51 0.0866866 -0.117092 
52 -0.0167028 -0.279814 
53 0.27282 0.462625 
54 0.0417568 -0.120303 
55 -0.454308 -0.145177 
56 0.460299 0.35878 
57 -0.0790301 0.86926 
58 -0.367453 -0.273236 
59 0.68954 0.533952 
60 0.113753 0.353067 
61 0.938292 0.67781 
62 0.211686 -0.0881062 
63 0.885838 0.52223 
64 -0.985257 -0.813639 
65 -0.518811 -0.703614 
66 0.0104028 -0.104984 
67 1.99692 0.970783 
68 -1.08045 -0.775098 
69 -0.195839 -0.358336 
70 -0.500869 -0.803238 
71 -0.0315724 0.0420192 
72 -1.60692 -0.860535 
73 0.745277 0.244264 
74 1.24926 0.714934 
75 0.377869 0.163347 
76 0.0154061 0.0519335 
77 -0.493679 -0.782029 
78 0.506711 0.219797 
79 -0.0552833 -0.250547 
80 0.119721 -0.516614 
81 0.703841 0.43753 
82 0.210137 0.376283 
83 -0.0702986 0.0550619 
84 -0.153075 -0.109535 
85 0.235182 0.201776 
86 0.404005 0.409191 
87 -0.266928 0.0131472 
88 -0.471725 -0.0525105 
89 0.0864867 0.176408 
90 0.810778 0.614508 
91 -0.115474 -0.423995 
92 -1.48934 -0.940886 
93 0.643484 0.519478 
94 0.0228672 -0.19108 
95 0.178412 -0.107586 
96 0.0786184 0.220945 
97 0.193406 0.136424 
98 -0.00915293 0.667359 
99 0.263779 0.253246 
100 -0.0189499 -0.211423 
101 -0.895384 -0.766945 
102 0.166241 -0.979697 
103 -0.260262 -0.092764 
104 -0.101079 -0.396636 
105 1.54273 0.801251 
106 0.000567944 0.514643 
107 -0.288838 -0.335879 
108 -0.250869 -0.0298819 
109 0.523042 0.224499 
110 0.0401449 0.182172 
111 0.0926024 -0.0698187 
112 0.764706 0.164271 
113 -0.0818008 0.128564 
114 0.0549441 0.240177 
115 -0.112864 -0.926729 
116 -0.0219242 0.409924 
117 1.37109 0.257155 
118 0.0425584 -0.250708 
119 0.129672 -0.0168084 
120 0.273057 0.0641745 
121 0.333063 0.652573 
122 0.498084 0.232282 
123 -0.912961 -0.884179 
124 -0.00370236 -0.820214 
125 0.178861 0.552989 
126 0.784088 0.525046 
127 1.20326 0.85384 
128 -0.131917 0.0956623 
129 0.458164 0.0265437 
130 0.334412 0.37064 
131 -0.494209 -0.5123 
132 -0.113536 -0.249178 
133 -1.38089 -0.717386 
134 0.185784 0.395714 
135 -0.0742298 0.248735 
136 0.278142 -0.268338 
137 -0.400902 -0.746299 
138 0.905284 0.758693 
139 0.47208 0.424363 
140 1.06446 0.765104 
141 -0.786042 0.669778 
142 0.788424 0.601026 
143 -0.173524 -0.150378 
144 -0.167605 0.675518 
145 -0.352448 -0.731714 
146 -0.128308 -0.346153 
147 -0.455368 -0.715221 
148 -0.156253 0.257708 
149 -0.166949 -0.144296 
150 -1.90367 -1.09349 
151 -1.46289 -0.986885 
152 -0.635298 -0.608718 
153 1.09782 0.645865 
154 0.826613 0.747448 
155 -0.299514 0.966775 
156 -0.108009 -0.455571 
157 -0.164381 0.202808 
158 -0.311163 -0.193145 
159 0.581136 -0.0366044 
160 -0.0500084 0.216918 
161 0.469863 0.536961 
162 0.129659 0.0740258 
163 0.220686 0.396275 
164 2.26605 1.12039 
165 0.135632 -0.0581376 
166 1.93722 0.971472 
167 0.0733633 0.941538 
168 -0.182822 0.570243 
169 -0.523951 -0.674947 
170 0.341396 -0.723177 
171 1.02571 0.853562 
172 -2.12956 -1.18954 
173 0.433327 0.416028 
174 -0.3134 -0.399562 
175 -1.43158 -1.08675 
176 0.337455 0.554801 
177 -0.191633 -0.32448 
178 -0.031616 0.489439 
179 -0.0767757 0.166118 
180 0.673416 0.571959 
181 0.980276 0.319644 
182 1.65308 0.795607 
183 0.116809 0.349904 
184 -0.148945 -0.129912 
185 -0.237266 0.869184 
186 0.964752 0.524692 
187 2.06323 0.849193 
188 -0.367435 0.485758 
189 -0.238666 0.0266998 
190 -1.81336 -1.27944 
191 -0.011904 -0.82957 
192 0.646612 0.399839 
193 -0.911154 -0.352054 
194 0.00416974 -0.231425 
195 -0.177438 -0.395535 
196 -0.348652 -0.527577 
197 0.483971 0.394289 
198 0.503008 0.080885 
199 0.0309817 0.271487 
200 -0.266811 -0.407214 
201 -1.29985 -0.415372 
202 0.0358524 -0.081584 
203 -0.0329943 -0.362286 
204 -0.446527 -0.380887 
205 -0.556292 -0.610019 
206 0.45449 0.509997 
207 -0.162408 -0.0364994 
208 -0.766749 -0.660913 
209 0.013011 0.877628 
210 0.714364 0.613635 
211 -0.138611 -0.11982 
212 0.0927967 -0.204735 
213 -0.287702 -0.0847984 
214 0.395794 0.429754 
215 0.555755 0.811583 
216 -1.19608 -0.509023 
217 -0.101565 0.0994924 
218 -0.560114 -0.707741 
219 0.386927 0.615949 
220 -0.513642 -0.734344 
221 -1.74067 -1.11728 
222 -0.435559 -0.38783 
223 -0.194608 -0.67552 
224 -0.765834 -0.741391 
225 0.65639 0.526582 
226 0.0658668 0.436832 
227 -0.451906 -0.157986 
228 -1.05395 -0.205457 
229 0.361189 0.820165 
230 -0.475072 -0.410511 
231 -0.766434 -0.543742 
232 -0.166271 -0.210014 
233 -0.354969 0.151684 
234 -0.6723 -0.645838 
235 0.0246445 0.755006 
236 0.0147205 -0.227927 
237 -0.263006 -0.248823 
238 0.265619 0.171376 
239 -0.0109301 -0.107757 
240 -1.59178 -1.02147 
241 -1.45959 -0.967292 
242 -0.3328 -0.619347 
243 -0.403199 -0.676748 
244 0.478765 0.0618141 
245 0.359759 -0.0353223 
246 0.111989 0.100871 
247 0.0149796 0.0773777 
248 0.343004 -0.151864 
249 0.682482 0.4858 
250 -0.457275 -0.763088 
251 -1.37166 -0.899438 
252 -0.725558 -0.809475 
253 -0.467644 -0.298269 
254 -0.38859 -0.140592 
255 0.208964 0.264557 
256 -0.211671 -0.553585 
257 0.277634 -0.038431 
258 1.22071 0.274069 
259 1.10035 0.597887 
260 1.11189 0.911315 
261 -0.111077 0.117638 
262 -0.503633 0.00424519 
263 -0.168907 0.273455 
264 0.227316 0.0323113 
265 -0.262057 -0.644049 
266 0.876156 0.642209 
267 -0.0148629 0.251477 
268 -1.78839 -1.18864 
269 -0.616766 -0.144861 
270 0.425595 0.00229502 
271 -0.783598 -0.554361 
272 0.317034 0.464726 
273 0.530663 0.480219 
274 1.3441 0.902789 
275 -0.149528 -0.581472 
276 0.269338 0.640652 
277 -0.750367 -0.672759 
278 -1.31256 -0.767736 
279 1.19668 0.814929 
280 0.479823 0.240596 
281 -0.643353 -0.583207 
282 -0.0327564 0.123241 
283 -0.0945589 0.337173 
284 -0.01963 -0.575063 
285 -0.0687721 -0.31249 
286 0.235379 0.469444 
287 0.332734 -0.267928 
288 0.946326 0.838169 
289 -0.186254 -0.0668048 
290 0.331073 0.790812 
291 -0.860765 -0.800545 
292 -0.707994 -0.257254 
293 0.99545 0.616563 
294 0.411907 0.273263 
295 0.254873 0.619459 
296 -0.234046 -0.0674386 
297 -1.76185 -1.13873 
298 -0.204814 0.0332246 
299 -1.16991 -0.911511 
terror=7.52811
l1pen=41.6464
l2pen=232.235
-1.69787 0.690195 3.8625 -3.81164 -1.06155 5.83392 6.70866 -7.5676 7.17886 3.23357 
F= -1.69787* (x3) +0.690195* ( (1/(x2 - (-5.11043))) ) +3.8625* ( (x3) ) -3.81164* (1/(x1 - (8.35944))) -1.06155*x3+5.83392* ( ( (1/(x3 - (5.59735))) ) ) +6.70866* ( (1/(x2 - (-5.11043))) ) -7.5676* (1/(x4 - (-8.50614))) +7.17886*(0)+3.23357*(0)
1 4 3 1 1 2 0 6 2 -5.11043 0 6 3 0 4 3 2 0 6 1 8.35944 0 0 0 4 3 0 0 0 0 3 3 6 3 5.59735 6 3 6 2 -5.11043 0 1 6 4 -8.50614 0 0 0 1 1 1 2 3 4 2 0 1 2 1 2 
0 0 2 0 0 0 0 0 2 1 0 0 0 0 0 2 0 0 0 2 1 0 0 0 0 2 0 0 0 0 0 0 0 2 1 0 0 0 2 1 0 0 0 2 1 0 0 0 0 0 0 0 0 0 0 0 0 0 0 0 
