0 -1.4637 -1.18401 
1 0.508845 -0.287596 
2 0.0694206 1.12216 
3 -1.1624 -1.02523 
4 -1.68479 -1.42542 
5 -0.257612 -0.160892 
6 -0.501175 0.0122617 
7 -0.0784566 0.162683 
8 0.632212 0.246529 
9 0.27365 0.459044 
10 0.215874 0.57758 
11 -0.189841 -0.550856 
12 -0.0657716 0.13568 
13 -0.342885 -0.163585 
14 0.0950127 -0.47946 
15 0.00266578 0.261565 
16 0.734619 0.31579 
17 -0.342704 -0.131924 
18 -0.802198 -0.755643 
19 0.752197 0.723282 
20 0.359727 -0.219948 
21 0.346099 -0.0487372 
22 0.448476 -0.00868633 
23 0.747828 0.407256 
24 -0.119013 0.0569408 
25 -0.839706 -0.411965 
26 0.611156 0.855275 
27 -0.00971773 -0.321214 
28 0.0402982 0.253695 
29 0.0835155 0.268321 
30 -0.410824 -0.508122 
31 0.462135 0.549112 
32 -1.47094 -0.989618 
33 0.0957534 -0.490519 
34 1.25036 0.978876 
35 1.07566 1.1173 
36 0.107209 -0.173092 
37 -0.307483 -0.19787 
38 0.060431 -0.257402 
39 -0.414762 -0.288402 
40 0.307658 0.412973 
41 -0.317588 -0.308912 
42 -0.9845 -1.16054 
43 -0.645669 -0.851386 
44 0.199999 0.0762554 
45 0.202874 0.324504 
46 0.0229235 0.0674974 
47 0.21308 0.306448 
48 0.654627 0.784654 
49 1.44777 1.1841 
50 -0.330155 0.0468043 
51 0.0866866 -0.112615 
52 -0.0167028 -0.411749 
53 0.27282 0.288582 
54 0.0417568 -0.167157 
55 -0.454308 -0.140888 
56 0.460299 0.684762 
57 -0.0790301 0.148578 
58 -0.367453 -0.25488 
59 0.68954 0.65366 
60 0.113753 0.446157 
61 0.938292 0.594206 
62 0.211686 -0.3075 
63 0.885838 0.787011 
64 -0.985257 -1.1312 
65 -0.518811 -0.139411 
66 0.0104028 0.289983 
67 1.99692 1.43151 
68 -1.08045 -0.809178 
69 -0.195839 -0.287715 
70 -0.500869 -0.292039 
71 -0.0315724 0.0391426 
72 -1.60692 -0.899984 
73 0.745277 0.368195 
74 1.24926 1.31626 
75 0.377869 -0.00906412 
76 0.0154061 -0.00194874 
77 -0.493679 -0.508531 
78 0.506711 0.511425 
79 -0.0552833 -0.333485 
80 0.119721 -0.508715 
81 0.703841 0.558695 
82 0.210137 0.273989 
83 -0.0702986 -0.0749646 
84 -0.153075 0.402642 
85 0.235182 0.327902 
86 0.404005 0.539871 
87 -0.266928 -0.381893 
88 -0.471725 -0.0925013 
89 0.0864867 0.324642 
90 0.810778 0.665813 
91 -0.115474 -0.374506 
92 -1.48934 -1.02954 
93 0.643484 0.377915 
94 0.0228672 -0.227032 
95 0.178412 0.0939655 
96 0.0786184 0.339385 
97 0.193406 0.144657 
98 -0.00915293 0.31232 
99 0.263779 0.0270456 
100 -0.0189499 -0.0998951 
101 -0.895384 -0.5091 
102 0.166241 -0.661782 
103 -0.260262 0.40592 
104 -0.101079 -0.558694 
105 1.54273 1.04245 
106 0.000567944 0.181552 
107 -0.288838 -0.499388 
108 -0.250869 0.386069 
109 0.523042 0.010876 
110 0.0401449 0.124613 
111 0.0926024 -0.107453 
112 0.764706 0.719802 
113 -0.0818008 0.0448858 
114 0.0549441 0.250789 
115 -0.112864 -0.592782 
116 -0.0219242 -0.036847 
117 1.37109 0.569796 
118 0.0425584 0.05323 
119 0.129672 -0.284868 
120 0.273057 0.0405734 
121 0.333063 0.855572 
122 0.498084 0.359192 
123 -0.912961 -0.587182 
124 -0.00370236 -0.496664 
125 0.178861 -0.04707 
126 0.784088 0.793706 
127 1.20326 0.971661 
128 -0.131917 0.0967651 
129 0.458164 0.201269 
130 0.334412 0.685164 
131 -0.494209 -0.545041 
132 -0.113536 -0.455116 
133 -1.38089 -1.06359 
134 0.185784 0.308689 
135 -0.0742298 0.492345 
136 0.278142 -0.108972 
137 -0.400902 -0.671185 
138 0.905284 0.32213 
139 0.47208 0.360536 
140 1.06446 0.422281 
141 -0.786042 0.456606 
142 0.788424 0.56455 
143 -0.173524 -0.215343 
144 -0.167605 0.447987 
145 -0.352448 -0.526893 
146 -0.128308 -0.4335 
147 -0.455368 -0.287337 
148 -0.156253 0.059974 
149 -0.166949 0.160999 
150 -1.90367 -1.12944 
151 -1.46289 -0.950915 
152 -0.635298 -0.408802 
153 1.09782 1.03993 
154 0.826613 0.942884 
155 -0.299514 -0.0312062 
156 -0.108009 -0.62958 
157 -0.164381 -0.0707409 
158 -0.311163 -0.253407 
159 0.581136 0.0338738 
160 -0.0500084 0.240948 
161 0.469863 0.375163 
162 0.129659 0.174596 
163 0.220686 0.248934 
164 2.26605 1.64335 
165 0.135632 -0.11362 
166 1.93722 1.40903 
167 0.0733633 -0.207311 
168 -0.182822 -0.0105369 
169 -0.523951 -0.340199 
170 0.341396 -0.633811 
171 1.02571 0.806669 
172 -2.12956 -1.49111 
173 0.433327 0.246536 
174 -0.3134 -0.612582 
175 -1.43158 -1.33794 
176 0.337455 0.597982 
177 -0.191633 -0.236365 
178 -0.031616 0.115259 
179 -0.0767757 0.410966 
180 0.673416 0.301551 
181 0.980276 0.881983 
182 1.65308 1.06201 
183 0.116809 0.709795 
184 -0.148945 -0.133468 
185 -0.237266 -0.0937908 
186 0.964752 1.20684 
187 2.06323 1.67823 
188 -0.367435 0.32607 
189 -0.238666 0.343067 
190 -1.81336 -2.37321 
191 -0.011904 -0.39186 
192 0.646612 0.486968 
193 -0.911154 -0.38276 
194 0.00416974 -0.016989 
195 -0.177438 -0.132482 
196 -0.348652 -0.453485 
197 0.483971 0.112189 
198 0.503008 0.103697 
199 0.0309817 0.0500857 
200 -0.266811 -0.339656 
201 -1.29985 -1.19325 
202 0.0358524 -0.117919 
203 -0.0329943 -0.500374 
204 -0.446527 -0.353638 
205 -0.556292 -0.46389 
206 0.45449 1.00981 
207 -0.162408 0.159862 
208 -0.766749 -0.652207 
209 0.013011 -0.447478 
210 0.714364 1.19819 
211 -0.138611 0.065094 
212 0.0927967 -0.00220576 
213 -0.287702 -0.0806516 
214 0.395794 0.299077 
215 0.555755 0.0619985 
216 -1.19608 -0.641984 
217 -0.101565 0.341604 
218 -0.560114 -0.233498 
219 0.386927 0.538725 
220 -0.513642 -0.368547 
221 -1.74067 -1.60077 
222 -0.435559 -0.21011 
223 -0.194608 -0.380265 
224 -0.765834 -0.472035 
225 0.65639 0.737765 
226 0.0658668 0.0562157 
227 -0.451906 -0.274269 
228 -1.05395 -0.862732 
229 0.361189 0.110435 
230 -0.475072 -0.645797 
231 -0.766434 -0.817845 
232 -0.166271 -0.0614381 
233 -0.354969 0.176497 
234 -0.6723 -0.688965 
235 0.0246445 0.126371 
236 0.0147205 -0.0743138 
237 -0.263006 0.00699313 
238 0.265619 0.45643 
239 -0.0109301 0.0651406 
240 -1.59178 -0.878918 
241 -1.45959 -0.941536 
242 -0.3328 -0.340787 
243 -0.403199 -0.336302 
244 0.478765 -0.103257 
245 0.359759 0.0712286 
246 0.111989 0.213356 
247 0.0149796 -0.0392339 
248 0.343004 -0.231624 
249 0.682482 0.272296 
250 -0.457275 -0.43951 
251 -1.37166 -1.46653 
252 -0.725558 -0.46951 
253 -0.467644 -0.0348683 
254 -0.38859 0.0843019 
255 0.208964 0.244688 
256 -0.211671 -0.14203 
257 0.277634 -0.0333658 
258 1.22071 0.628281 
259 1.10035 1.19105 
260 1.11189 0.907532 
261 -0.111077 -0.0713734 
262 -0.503633 0.00956684 
263 -0.168907 -0.15978 
264 0.227316 -0.230882 
265 -0.262057 -0.518629 
266 0.876156 0.947177 
267 -0.0148629 0.219956 
268 -1.78839 -1.49789 
269 -0.616766 -0.0905646 
270 0.425595 -0.0379416 
271 -0.783598 -0.535138 
272 0.317034 0.132988 
273 0.530663 0.882882 
274 1.3441 0.887184 
275 -0.149528 -0.1136 
276 0.269338 0.436236 
277 -0.750367 -0.58287 
278 -1.31256 -0.719107 
279 1.19668 0.832032 
280 0.479823 0.0794962 
281 -0.643353 -0.344333 
282 -0.0327564 0.516671 
283 -0.0945589 0.351476 
284 -0.01963 -0.0746455 
285 -0.0687721 -0.428239 
286 0.235379 0.188492 
287 0.332734 -0.0584251 
288 0.946326 0.616718 
289 -0.186254 -0.0924551 
290 0.331073 0.769105 
291 -0.860765 -0.583254 
292 -0.707994 -0.215689 
293 0.99545 0.752649 
294 0.411907 0.271418 
295 0.254873 -0.101749 
296 -0.234046 0.208215 
297 -1.76185 -1.408 
298 -0.204814 0.398303 
299 -1.16991 -0.750269 
terror=6.03809
l1pen=50.388
l2pen=365.643
-1.21113 -4.18634 9.74058 0.684898 0.52032 9.68107 6.24393 -6.4148 7.93454 -3.77036 
F= -1.21113* ( (x2 * x4)  *  ( ( ( ( (x3) ) ) ) ) ) -4.18634* (1/(x2 - (5.50862))) +9.74058* (1/(x2 - (5.50862))) +0.684898* ( (x4 - (4.53671))  -  ( ( (x0 - (2.67288)) ) ) ) +0.52032* ( ( ( (1/(x4 - (4.53671)))  +  (x3 - (-6.91276)) )  -  (1/(x1 - (-1.96894))) ) ) +9.68107* ( ( ( ( ( ( ( (1/(x3 - (-6.91276))) ) ) ) ) ) ) ) +6.24393* ( ( (1/(x2 - (5.50862)))  /  ( ( (x0 - (2.67288))  *  (1/(x3)) ) ) ) ) -6.4148* ( ( (x0 /  ( (x0 - (2.67288))  +  (x4 - (4.53671)) ) ) ) ) +7.93454* (1/(x4 - (4.53671))) -3.77036* (1/(x3 - (-6.91276))) 
2 2 4 2 4 4 0 0 0 3 5 3 6 2 5.50862 1.05695e-307 1.33509e-307 1.00131e-307 1.22383e-307 9.45684e-308 4.45036e-308 9.45704e-308 1.22383e-307 9.45704e-308 6 2 5.50862 1.33509e-307 9.45684e-308 4.45037e-308 4.45038e-308 1.39072e-307 9.45697e-308 1.16821e-307 1.00133e-307 1.22384e-307 1 5 4 4.53671 2 1 5 0 2.67288 1 1 6 2 1 0 6 4 4.53671 5 3 -6.91276 6 1 -1.96894 3 3 1 3 2 2 1 6 3 -6.91276 3 3 2 3 6 2 5.50862 2 2 5 0 2.67288 6 3 2 0 3 4 0 0 5 0 2.67288 5 4 4.53671 6 4 4.53671 9.45698e-308 8.90076e-308 1.33509e-307 9.45698e-308 9.45684e-308 1.00131e-307 1.22382e-307 1.11258e-307 1.11258e-307 6 3 -6.91276 4.45036e-308 4.45037e-308 4.45036e-308 4.45035e-308 8.90078e-308 1.27946e-307 1.27946e-307 4.45035e-308 9.45684e-308 
0 0 0 2 0 2 0 0 0 0 0 2 0 2 1 3276857 2097204 2097200 6422538 7602277 2097249 3211309 3276846 3211313 0 2 1 2949152 3014708 3670065 3342390 3211316 3670066 2097206 3014713 3407927 0 0 2 1 0 0 0 2 1 0 0 0 0 0 0 0 2 1 0 2 1 0 2 1 0 0 0 0 0 0 0 0 2 1 0 0 0 0 0 2 1 0 0 0 2 1 0 2 0 0 0 0 2 0 0 2 1 0 2 1 0 2 1 3014709 3145781 3539000 3211314 3211321 2097205 3538989 3735598 3276849 0 2 1 3407904 3473454 3538995 3145783 3670072 3538998 655392 0 0 
