8.1761599999999994
8.1761599999999994
8.1761599999999994
8.1761599999999994
8.1761599999999994
8.1761599999999994
8.1761599999999994
8.1761599999999994
8.1761599999999994
8.1761599999999994
8.1761599999999994
8.1761599999999994
8.1761599999999994
8.1761599999999994
8.1761599999999994
8.1761599999999994
8.1761599999999994
8.1761599999999994
8.1761599999999994
8.1761599999999994
8.1761599999999994
8.1761599999999994
8.1761599999999994
8.1761599999999994
8.1761599999999994
8.1761599999999994
8.1761599999999994
8.1761599999999994
8.1761599999999994
8.1761599999999994
8.1761599999999994
8.1761599999999994
8.1761599999999994
8.1761599999999994
8.1761599999999994
8.1761599999999994
8.1761599999999994
8.1761599999999994
8.1761599999999994
8.1761599999999994
8.1761599999999994
8.1761599999999994
8.1761599999999994
8.1761599999999994
8.1761599999999994
8.1761599999999994
8.1761599999999994
8.1761599999999994
8.1761599999999994
8.1761599999999994
8.1761599999999994
8.1761599999999994
8.1761599999999994
8.1761599999999994
8.1761599999999994
8.1761599999999994
8.1761599999999994
8.1761599999999994
8.1761599999999994
8.1761599999999994
8.1761599999999994
8.1761599999999994
8.1761599999999994
8.1827299999999994
8.1827299999999994
8.1827299999999994
8.1827299999999994
8.1827299999999994
8.1827299999999994
8.1827299999999994
8.1827299999999994
8.1827299999999994
8.1827299999999994
8.1827299999999994
8.1827299999999994
8.1827299999999994
8.1827299999999994
8.1827299999999994
8.1827299999999994
8.1827299999999994
8.1827299999999994
8.1827299999999994
8.1827299999999994
8.1827299999999994
8.1827299999999994
8.1827299999999994
8.1827299999999994
8.1827299999999994
8.1827299999999994
8.1827299999999994
8.1827299999999994
8.1827299999999994
8.1827299999999994
8.1827299999999994
8.1827299999999994
8.1827400000000008
8.1827400000000008
8.1827400000000008
8.1827400000000008
8.1827400000000008
8.1827900000000007
8.1827900000000007
8.1830900000000000
8.1830900000000000
8.1830900000000000
8.1837700000000009
8.1908300000000001
8.1908300000000001
8.1908300000000001
8.1908300000000001
8.2058099999999996
8.2517600000000009
8.2517600000000009
8.2517600000000009
8.2517600000000009
8.3075799999999997
8.3167399999999994
8.3167399999999994
8.3167399999999994
8.3167399999999994
8.3190100000000005
8.3717699999999997
8.7337299999999995
8.7337299999999995
8.7337299999999995
8.7337299999999995
8.7337299999999995
8.7337299999999995
8.7337299999999995
8.7337299999999995
8.7337299999999995
8.7337299999999995
8.7337299999999995
8.7337299999999995
8.7337299999999995
8.7337299999999995
8.7337299999999995
8.7337299999999995
8.7337299999999995
8.7337299999999995
8.7337299999999995
8.7337299999999995
8.7337299999999995
8.7337299999999995
8.7802100000000003
8.7802100000000003
8.7802100000000003
8.7802100000000003
8.7802100000000003
8.7802100000000003
8.7802100000000003
8.7802100000000003
8.7802100000000003
8.7802100000000003
8.7802100000000003
8.7802100000000003
8.7802100000000003
8.7802100000000003
8.7802100000000003
8.7802100000000003
8.7802100000000003
8.7802100000000003
8.7802100000000003
8.7802100000000003
8.7802100000000003
8.7802100000000003
8.7802100000000003
8.7802100000000003
8.7802100000000003
8.7802100000000003
8.7802100000000003
8.7802100000000003
8.7802100000000003
8.7802100000000003
8.7802100000000003
8.7802100000000003
8.7802100000000003
8.7802100000000003
8.7802100000000003
8.7802100000000003
8.7802100000000003
8.7802500000000006
8.7802500000000006
8.7802500000000006
8.7802500000000006
8.7802500000000006
8.7802500000000006
8.7802500000000006
8.7802500000000006
8.7802500000000006
8.7806099999999994
8.7839399999999994
8.7839399999999994
8.7839399999999994
8.7839399999999994
8.7941599999999998
8.8862299999999994
8.8862299999999994
8.8862299999999994
8.8862299999999994
8.9189600000000002
9.0002300000000002
9.0002300000000002
9.0002300000000002
9.0002300000000002
9.0548999999999999
9.1491100000000003
9.1491100000000003
9.1491100000000003
9.1491100000000003
9.2646599999999992
9.3332999999999995
9.3332999999999995
9.3332999999999995
9.3332999999999995
9.3543400000000005
9.3720400000000001
9.3720400000000001
9.3720400000000001
9.3720400000000001
9.3980700000000006
9.4060600000000001
9.4060600000000001
9.4060600000000001
9.4060600000000001
9.4127700000000001
9.4127700000000001
9.4127700000000001
9.4127700000000001
9.4127700000000001
9.4355899999999995
9.4377700000000004
9.4377700000000004
9.4396699999999996
9.4396699999999996
9.4444800000000004
9.4455600000000004
9.4455600000000004
9.4455600000000004
9.4455600000000004
9.4484700000000004
9.4488699999999994
9.4488699999999994
9.4502000000000006
9.4502000000000006
9.4530300000000000
9.4530300000000000
9.4530300000000000
9.4530300000000000
9.4537999999999993
9.4538200000000003
9.4544400000000000
9.4544400000000000
9.4544400000000000
9.4544400000000000
9.4544400000000000
9.4571900000000007
9.4571900000000007
9.4571900000000007
9.4571900000000007
9.4594900000000006
9.5078200000000006
9.5078200000000006
9.5078200000000006
9.5078200000000006
9.5351999999999997
9.5351999999999997
9.5627600000000008
9.5627600000000008
9.5627600000000008
9.5627600000000008
9.5627600000000008
9.5627600000000008
9.5627600000000008
9.5627600000000008
9.5627600000000008
9.5627600000000008
9.5627600000000008
9.5627600000000008
9.5627600000000008
9.5627600000000008
9.5627600000000008
9.5627600000000008
9.5627600000000008
9.5627600000000008
9.5627600000000008
9.5627600000000008
9.5627600000000008
9.5627600000000008
9.5627600000000008
9.5627600000000008
9.5627600000000008
9.5627600000000008
9.5627600000000008
9.5627600000000008
9.5627600000000008
9.5627600000000008
9.5627600000000008
9.5627600000000008
9.5627600000000008
9.5630000000000006
9.5635600000000007
9.5635600000000007
9.5635600000000007
9.5635600000000007
9.5655400000000004
9.5667200000000001
9.5667600000000004
9.5667600000000004
9.5667600000000004
9.5686999999999998
9.5698799999999995
9.5698799999999995
9.5698799999999995
9.5698799999999995
9.5722799999999992
9.5743500000000008
9.5743500000000008
9.5743500000000008
9.5743500000000008
9.5770800000000005
9.5789000000000009
9.5789000000000009
9.5789000000000009
9.5789000000000009
9.5816400000000002
9.5825099999999992
9.5825099999999992
9.5825099999999992
9.5825099999999992
9.5838300000000007
9.5845000000000002
9.5860800000000008
9.5860800000000008
9.5860800000000008
9.5887700000000002
9.5905900000000006
9.5905900000000006
9.5905900000000006
9.5905900000000006
9.5935400000000008
9.5949299999999997
9.5949299999999997
9.5949299999999997
9.5949299999999997
9.5970600000000008
9.5985499999999995
9.5985499999999995
9.5985499999999995
9.5985499999999995
9.6014400000000002
9.6027799999999992
9.6027799999999992
9.6027799999999992
9.6027799999999992
9.6040899999999993
9.6052400000000002
9.6052400000000002
9.6052400000000002
9.6052400000000002
9.6052400000000002
9.6052400000000002
9.6052400000000002
9.6052400000000002
9.6052400000000002
9.6052400000000002
9.8729499999999994
9.8729499999999994
9.8729499999999994
9.8729499999999994
9.8729499999999994
9.8729499999999994
9.8729499999999994
9.8729499999999994
9.8729499999999994
9.9471100000000003
9.9471100000000003
9.9471100000000003
9.9471100000000003
9.9471100000000003
10.1636000000000006
10.3435000000000006
10.3435000000000006
10.3855000000000004
10.3855000000000004
10.3855000000000004
10.8033000000000001
10.8033000000000001
10.9393999999999991
10.9393999999999991
10.9393999999999991
10.9393999999999991
10.9393999999999991
10.9393999999999991
10.9393999999999991
10.9393999999999991
10.9393999999999991
10.9393999999999991
10.9393999999999991
10.9393999999999991
10.9393999999999991
10.9393999999999991
10.9393999999999991
10.9393999999999991
10.9393999999999991
10.9393999999999991
10.9393999999999991
10.9393999999999991
10.9393999999999991
10.9393999999999991
10.9393999999999991
10.9393999999999991
10.9393999999999991
10.9393999999999991
10.9393999999999991
10.9393999999999991
10.9393999999999991
10.9393999999999991
10.9393999999999991
10.9393999999999991
10.9393999999999991
10.9393999999999991
10.9393999999999991
10.9393999999999991
10.9393999999999991
10.9395000000000007
10.9397000000000002
10.9397000000000002
10.9397000000000002
10.9397000000000002
10.9403000000000006
10.9406999999999996
10.9406999999999996
10.9406999999999996
10.9406999999999996
10.9415999999999993
10.9423999999999992
10.9423999999999992
10.9423999999999992
10.9423999999999992
10.9441000000000006
10.9446999999999992
10.9449000000000005
10.9449000000000005
10.9449000000000005
10.9463000000000008
10.9468999999999994
10.9468999999999994
10.9468999999999994
10.9479000000000006
10.9479000000000006
10.9479000000000006
10.9479000000000006
10.9479000000000006
10.9479000000000006
10.9479000000000006
10.9479000000000006
10.9479000000000006
11.4699000000000009
11.4699000000000009
11.4699000000000009
11.4699000000000009
11.4699000000000009
11.4699000000000009
12.3445999999999998
12.6227000000000000
12.6227000000000000
12.6227000000000000
12.6227000000000000
15.8195999999999994
15.8195999999999994
15.8195999999999994
15.8195999999999994
15.8195999999999994
15.8195999999999994
19.6493000000000002
19.8621000000000016
19.8621000000000016
19.8621000000000016
19.8621000000000016
19.8621000000000016
23.2542000000000009
23.2542000000000009
23.4318999999999988
23.4318999999999988
23.4318999999999988
24.8439000000000014
28.8890999999999991
49.3231999999999999
59.5784999999999982
70.0820999999999970
70.0820999999999970
70.0820999999999970
70.0820999999999970
73.2500000000000000
112.6989999999999981
121.5349999999999966
121.6470000000000056
152.9519999999999982
152.9519999999999982
152.9519999999999982
