0 -1.4637 -0.812755 
1 0.508845 -0.457103 
2 0.0694206 0.878121 
3 -1.1624 -0.643088 
4 -1.68479 -0.768716 
5 -0.257612 -0.295348 
6 -0.501175 -0.225687 
7 -0.0784566 0.0945649 
8 0.632212 0.385008 
9 0.27365 0.277518 
10 0.215874 0.56783 
11 -0.189841 -0.475636 
12 -0.0657716 -0.549358 
13 -0.342885 -0.172499 
14 0.0950127 -0.614518 
15 0.00266578 0.14663 
16 0.734619 0.199194 
17 -0.342704 -0.0961602 
18 -0.802198 -0.526713 
19 0.752197 0.440167 
20 0.359727 -0.043718 
21 0.346099 0.995184 
22 0.448476 0.369857 
23 0.747828 0.574117 
24 -0.119013 0.171379 
25 -0.839706 -0.479832 
26 0.611156 0.72308 
27 -0.00971773 -0.318425 
28 0.0402982 0.192941 
29 0.0835155 0.279336 
30 -0.410824 -0.284284 
31 0.462135 0.361325 
32 -1.47094 -0.743163 
33 0.0957534 0.54256 
34 1.25036 0.652584 
35 1.07566 0.577948 
36 0.107209 -0.422184 
37 -0.307483 0.583701 
38 0.060431 -0.301445 
39 -0.414762 -0.230055 
40 0.307658 0.381894 
41 -0.317588 -0.78461 
42 -0.9845 -0.530403 
43 -0.645669 -0.367262 
44 0.199999 0.116611 
45 0.202874 0.547498 
46 0.0229235 0.587377 
47 0.21308 0.0989463 
48 0.654627 0.928088 
49 1.44777 0.539683 
50 -0.330155 -0.0552749 
51 0.0866866 -0.436368 
52 -0.0167028 -0.348228 
53 0.27282 0.124155 
54 0.0417568 -0.16906 
55 -0.454308 -0.363123 
56 0.460299 0.512738 
57 -0.0790301 0.718018 
58 -0.367453 -0.31577 
59 0.68954 0.435664 
60 0.113753 0.290901 
61 0.938292 0.600329 
62 0.211686 -0.157657 
63 0.885838 0.358547 
64 -0.985257 -0.585659 
65 -0.518811 -0.959963 
66 0.0104028 -0.151473 
67 1.99692 0.618446 
68 -1.08045 -0.625251 
69 -0.195839 -0.361776 
70 -0.500869 -0.941236 
71 -0.0315724 -0.0709211 
72 -1.60692 -0.801499 
73 0.745277 0.439532 
74 1.24926 0.827333 
75 0.377869 0.141855 
76 0.0154061 -0.00425175 
77 -0.493679 -0.840762 
78 0.506711 0.00984107 
79 -0.0552833 -0.342197 
80 0.119721 -0.747485 
81 0.703841 0.325712 
82 0.210137 0.405122 
83 -0.0702986 -0.0267138 
84 -0.153075 0.120477 
85 0.235182 0.0585984 
86 0.404005 0.56142 
87 -0.266928 -0.499242 
88 -0.471725 -0.174067 
89 0.0864867 0.132761 
90 0.810778 0.556724 
91 -0.115474 -0.421393 
92 -1.48934 -0.742889 
93 0.643484 0.279997 
94 0.0228672 -0.249589 
95 0.178412 0.0818736 
96 0.0786184 0.282407 
97 0.193406 0.0592009 
98 -0.00915293 0.598361 
99 0.263779 0.296392 
100 -0.0189499 -0.259302 
101 -0.895384 -1.01444 
102 0.166241 -0.917128 
103 -0.260262 -0.0356501 
104 -0.101079 -0.256681 
105 1.54273 0.685446 
106 0.000567944 0.303302 
107 -0.288838 -0.0948166 
108 -0.250869 -0.0404814 
109 0.523042 0.295083 
110 0.0401449 0.323835 
111 0.0926024 -0.0919112 
112 0.764706 0.293715 
113 -0.0818008 0.0366799 
114 0.0549441 0.199289 
115 -0.112864 -0.768171 
116 -0.0219242 0.676609 
117 1.37109 0.461499 
118 0.0425584 -0.22535 
119 0.129672 -0.164066 
120 0.273057 0.058254 
121 0.333063 0.801671 
122 0.498084 0.594684 
123 -0.912961 -0.854448 
124 -0.00370236 -0.538218 
125 0.178861 0.292306 
126 0.784088 0.393411 
127 1.20326 0.771135 
128 -0.131917 -0.0189568 
129 0.458164 0.179098 
130 0.334412 0.377332 
131 -0.494209 -0.186485 
132 -0.113536 -0.0601252 
133 -1.38089 -0.674684 
134 0.185784 0.362301 
135 -0.0742298 0.255511 
136 0.278142 -0.100464 
137 -0.400902 -0.36853 
138 0.905284 0.641412 
139 0.47208 0.148717 
140 1.06446 0.725224 
141 -0.786042 0.660788 
142 0.788424 0.565142 
143 -0.173524 -0.374578 
144 -0.167605 0.603816 
145 -0.352448 -0.53002 
146 -0.128308 -0.283418 
147 -0.455368 -0.991579 
148 -0.156253 0.302606 
149 -0.166949 -0.0594703 
150 -1.90367 -0.940087 
151 -1.46289 -0.870358 
152 -0.635298 -0.626005 
153 1.09782 0.72143 
154 0.826613 0.957269 
155 -0.299514 0.819084 
156 -0.108009 -0.309874 
157 -0.164381 0.059888 
158 -0.311163 -0.477224 
159 0.581136 0.150467 
160 -0.0500084 0.338894 
161 0.469863 0.532753 
162 0.129659 0.02545 
163 0.220686 -0.031145 
164 2.26605 0.820962 
165 0.135632 -0.0717991 
166 1.93722 0.810694 
167 0.0733633 0.853218 
168 -0.182822 0.487722 
169 -0.523951 -0.610814 
170 0.341396 -0.721947 
171 1.02571 0.633851 
172 -2.12956 -0.95097 
173 0.433327 0.138242 
174 -0.3134 -0.43143 
175 -1.43158 -0.751852 
176 0.337455 0.80285 
177 -0.191633 -0.389224 
178 -0.031616 0.304901 
179 -0.0767757 0.452708 
180 0.673416 0.337619 
181 0.980276 0.549167 
182 1.65308 0.801438 
183 0.116809 0.699817 
184 -0.148945 0.158159 
185 -0.237266 0.67762 
186 0.964752 0.889517 
187 2.06323 0.77135 
188 -0.367435 0.455444 
189 -0.238666 0.144493 
190 -1.81336 -0.829487 
191 -0.011904 -0.752104 
192 0.646612 0.370553 
193 -0.911154 -0.528718 
194 0.00416974 -0.231819 
195 -0.177438 -0.479795 
196 -0.348652 -0.607022 
197 0.483971 0.501228 
198 0.503008 0.113448 
199 0.0309817 0.0977653 
200 -0.266811 -0.47881 
201 -1.29985 -0.866409 
202 0.0358524 -0.219051 
203 -0.0329943 -0.750786 
204 -0.446527 -0.514652 
205 -0.556292 -0.665264 
206 0.45449 0.500258 
207 -0.162408 -0.0905622 
208 -0.766749 -0.537395 
209 0.013011 0.620112 
210 0.714364 0.732518 
211 -0.138611 0.0625097 
212 0.0927967 -0.200227 
213 -0.287702 -0.235484 
214 0.395794 0.481776 
215 0.555755 0.693434 
216 -1.19608 -0.308925 
217 -0.101565 -0.081941 
218 -0.560114 -0.661939 
219 0.386927 0.604111 
220 -0.513642 -0.773062 
221 -1.74067 -0.846529 
222 -0.435559 -0.334137 
223 -0.194608 -0.587867 
224 -0.765834 -0.746073 
225 0.65639 0.715017 
226 0.0658668 0.394837 
227 -0.451906 0.0192872 
228 -1.05395 -0.634926 
229 0.361189 0.710122 
230 -0.475072 -0.330109 
231 -0.766434 -0.390035 
232 -0.166271 0.0393556 
233 -0.354969 0.0257462 
234 -0.6723 -0.596377 
235 0.0246445 0.67224 
236 0.0147205 -0.215692 
237 -0.263006 -0.270333 
238 0.265619 0.209679 
239 -0.0109301 -0.220847 
240 -1.59178 -0.943328 
241 -1.45959 -1.00804 
242 -0.3328 -0.471986 
243 -0.403199 -0.703994 
244 0.478765 0.175871 
245 0.359759 -0.0927676 
246 0.111989 0.143301 
247 0.0149796 0.0190405 
248 0.343004 -0.123885 
249 0.682482 0.111733 
250 -0.457275 -0.659405 
251 -1.37166 -0.715659 
252 -0.725558 -0.703887 
253 -0.467644 -0.345165 
254 -0.38859 -0.212086 
255 0.208964 0.151866 
256 -0.211671 -0.732584 
257 0.277634 -0.0816131 
258 1.22071 0.515321 
259 1.10035 0.614221 
260 1.11189 0.723554 
261 -0.111077 -0.0680541 
262 -0.503633 -0.143214 
263 -0.168907 -0.303037 
264 0.227316 -0.0621221 
265 -0.262057 -0.67954 
266 0.876156 0.744587 
267 -0.0148629 0.456657 
268 -1.78839 -0.952867 
269 -0.616766 -0.308288 
270 0.425595 0.0404025 
271 -0.783598 -0.403708 
272 0.317034 0.485895 
273 0.530663 0.716194 
274 1.3441 0.7603 
275 -0.149528 -0.506364 
276 0.269338 0.600142 
277 -0.750367 -0.498548 
278 -1.31256 -0.726269 
279 1.19668 0.74663 
280 0.479823 0.228878 
281 -0.643353 -0.604355 
282 -0.0327564 0.420972 
283 -0.0945589 0.324309 
284 -0.01963 -0.643115 
285 -0.0687721 -0.473155 
286 0.235379 0.706592 
287 0.332734 -0.128785 
288 0.946326 0.503574 
289 -0.186254 0.0949061 
290 0.331073 0.824438 
291 -0.860765 -0.722921 
292 -0.707994 -0.396876 
293 0.99545 0.504197 
294 0.411907 0.0681532 
295 0.254873 0.446895 
296 -0.234046 0.0019624 
297 -1.76185 -0.932432 
298 -0.204814 0.108378 
299 -1.16991 -0.797946 
terror=7.87001
l1pen=40.6799
l2pen=210.336
8.78474 3.17828 -5.04088 1.40951 -2.16974 -6.4803 -2.41603 -3.57335 -3.01606 4.61098 
F= 8.78474*x3+3.17828* ( (x0 - (-8.91737))  + x3) -5.04088*x1+1.40951* ( ( (1/(x2 - (2.53186)))  *  ( ( ( ( ( (x1 - (-0.340536)) ) ) ) ) ) ) ) -2.16974*x3-6.4803*x3-2.41603* (x3 - (-2.00178)) -3.57335* ( ( ( (x1 -  ( ( ( ( (1/(x0 - (-8.91737))) ) ) ) ) ) ) ) ) -3.01606* (x0 - (-8.91737)) +4.61098* ( (x1 - (-0.340536))  *  ( (x3 - (-2.00178))  - x3) ) 
4 3 4.6375e-310 4.6375e-310 1.39071e-307 1.22384e-307 1.27946e-307 9.45684e-308 4.45037e-308 4.45038e-308 4.45039e-308 1.00133e-307 1.27946e-307 1.27946e-307 0 5 0 -8.91737 4 3 4.45038e-308 4.45037e-308 4.45035e-308 4.45037e-308 4.45036e-308 4.45038e-308 4.45036e-308 1.33509e-307 4 1 9.45698e-308 1.33509e-307 1.11258e-307 1.05696e-307 8.90077e-308 1.22383e-307 1.11256e-307 1.05694e-307 9.45684e-308 4.45038e-308 4.45039e-308 1.22383e-307 0 2 6 2 2.53186 2 1 0 0 2 5 1 -0.340536 6 4 3 1.00132e-307 1.27946e-307 9.45699e-308 1.05695e-307 1.11258e-307 9.45698e-308 1.27944e-307 9.45684e-308 4.45036e-308 1.05695e-307 1.16821e-307 9.45698e-308 4 3 9.45684e-308 4.45035e-308 4.45035e-308 1.05695e-307 8.90071e-308 8.90078e-308 1.05696e-307 1.33509e-307 1.27946e-307 1.00133e-307 1.33509e-307 1.33509e-307 5 3 -2.00178 4.45037e-308 8.90075e-308 4.45038e-308 4.45036e-308 4.45038e-308 4.45039e-308 1.05696e-307 1.33509e-307 1.22383e-307 1.27946e-307 9.45684e-308 2 1 2 1 4 1 1 3 1 3 6 0 -8.91737 3 5 0 -8.91737 8.90071e-308 1.16819e-307 9.45684e-308 4.45037e-308 4.45039e-308 4.45037e-308 8.90075e-308 4.45038e-308 1.05694e-307 9.45684e-308 4.45037e-308 2 5 1 -0.340536 1 5 3 -2.00178 4 3 1.33509e-307 1.33509e-307 1.3907e-307 9.45684e-308 
0 2 1734709200 32686 1808285184 21854 1808285184 21854 4 0 842478201 0 129 0 0 0 2 1 0 2 4 0 876032633 0 131 0 4 0 0 2 132 0 4 0 909587065 0 133 0 4 0 926364281 0 0 0 0 2 1 0 0 0 0 0 0 2 1 0 0 2 808989305 0 137 0 4 0 825766521 0 138 0 4 0 0 2 139 0 4 0 859320953 0 140 0 4 0 876098169 0 0 2 1 0 892875385 0 142 0 4 0 909652601 0 143 0 0 0 0 0 0 2 0 0 0 0 0 2 1 0 0 2 1 0 4 0 809054841 0 147 0 4 0 825832057 0 0 0 2 1 0 0 2 1 0 2 859386489 0 150 0 
