0 -0.219368 -0.430357 
1 0.659638 -0.170144 
2 -0.329145 -0.0817868 
3 0.545597 0.427437 
4 -2.09951 -1.89437 
5 0.65622 -0.191716 
6 -0.0694321 0.470625 
7 -0.584057 -0.318419 
8 -0.559328 -0.265639 
9 -0.0713581 0.38792 
10 0.772368 0.432062 
11 -1.36129 -1.35898 
12 -0.229888 -0.186304 
13 -1.03304 -0.35961 
14 0.310417 0.519487 
15 -0.779496 -0.927293 
16 0.0433129 0.324165 
17 1.18133 1.04165 
18 -0.951198 -1.05117 
19 1.49587 1.05558 
20 0.476802 0.520732 
21 -1.66695 -1.32952 
22 -0.20231 -0.849589 
23 0.513342 -0.200334 
24 -1.32024 -1.2748 
25 -1.14796 -0.738594 
26 0.2469 -0.0587201 
27 -1.64921 -1.35503 
28 0.611238 -0.0530907 
29 -0.00220991 0.302112 
30 -1.31643 -0.262882 
31 0.0730549 0.203464 
32 0.0297064 -0.487566 
33 0.138156 -0.0112008 
34 -1.47601 -0.824502 
35 0.374348 0.225428 
36 -0.890921 -0.316351 
37 -1.34518 -1.3467 
38 0.29853 -0.0607177 
39 -1.26809 -0.504903 
40 -0.230061 -0.352717 
41 0.62487 0.239581 
42 1.22271 0.710073 
43 -1.9504 -1.55713 
44 0.0938187 -0.129003 
45 -0.0694565 0.279049 
46 -0.116209 0.376116 
47 -0.0443265 -0.158715 
48 1.00379 0.7274 
49 -0.0693958 -0.248981 
50 -0.207941 -0.35489 
51 0.728992 0.805317 
52 0.628736 0.46616 
53 -0.248166 0.14526 
54 -0.792807 -0.397612 
55 0.502612 0.731009 
56 0.111632 -0.00641747 
57 1.37098 0.851189 
58 -0.877111 -0.889104 
59 -0.660136 -0.507576 
60 -0.10799 0.658004 
61 -0.1313 0.097598 
62 -1.24837 -0.83088 
63 0.442901 0.0181563 
64 -0.839503 -0.320452 
65 1.23858 0.523778 
66 -0.675296 -0.12996 
67 -0.0494802 -0.147663 
68 0.174223 0.185456 
69 0.0811568 0.0416957 
70 -0.690304 -0.335037 
71 0.291397 0.401767 
72 -0.881898 -0.530617 
73 0.0446732 0.0699387 
74 -0.191785 -0.051687 
75 -0.37649 -0.322083 
76 -0.471707 -0.0820861 
77 0.916706 0.764611 
78 -1.04858 -1.29392 
79 -1.00938 -0.478336 
80 1.40774 0.348022 
81 -0.199105 -0.185679 
82 -1.48801 -0.645524 
83 0.863461 0.0885939 
84 -0.42402 -0.0816045 
85 0.535521 0.32113 
86 -0.729653 -1.00256 
87 1.07834 0.688252 
88 0.122212 0.152604 
89 0.0608547 0.214535 
90 -0.587687 -0.730458 
91 0.785592 0.365045 
92 -2.31467 -1.57083 
93 -1.06649 -1.02367 
94 1.5356 0.671012 
95 0.901755 0.667731 
96 -0.298932 0.257301 
97 -0.358822 -0.337107 
98 0.0529747 0.321266 
99 -0.91197 -0.6177 
100 0.961393 0.679415 
101 -0.523052 -0.048424 
102 0.314923 -0.0919176 
103 0.446136 0.325173 
104 0.587384 -0.125171 
105 0.223404 0.272044 
106 -0.982922 -0.841047 
107 -1.05487 -0.892834 
108 0.705287 0.267891 
109 1.61015 0.994706 
110 1.67498 0.543953 
111 0.749543 0.752479 
112 -0.521129 -0.669215 
113 -0.132855 -0.0919276 
114 -0.377681 0.204495 
115 0.874326 0.341294 
116 1.03366 0.688128 
117 -0.541505 -0.506903 
118 1.24088 0.604155 
119 0.537555 0.428946 
120 0.711091 0.71199 
121 -0.60021 -0.00896589 
122 -0.283096 -0.068053 
123 -0.17414 -0.569618 
124 0.229078 -0.0473488 
125 -0.980356 -1.15653 
126 0.193866 0.120019 
127 0.448627 0.602687 
128 0.870246 0.999051 
129 -0.0273826 -0.0528784 
130 -0.308063 -0.230593 
131 0.0940309 -0.266193 
132 0.380036 0.220934 
133 -0.263765 -0.46863 
134 -0.397252 -0.568619 
135 -1.20457 -1.22649 
136 -0.697502 -0.266488 
137 -0.400758 -0.173937 
138 0.520442 -0.115878 
139 -1.34185 -0.598537 
140 0.531178 0.195747 
141 0.293921 0.370142 
142 -0.00714776 0.0324789 
143 -0.392975 0.0690292 
144 -0.871226 -0.684591 
145 -1.33364 -1.27906 
146 0.145403 -0.562132 
147 -1.23765 -1.13602 
148 0.0276431 0.419743 
149 -1.6709 -1.06862 
150 0.118042 0.46317 
151 -0.373563 0.0896124 
152 -1.20357 -0.181787 
153 0.287032 0.630011 
154 -2.02138 -1.32924 
155 0.49671 -0.602398 
156 0.910974 0.471109 
157 0.70106 0.125671 
158 -0.634774 -0.109403 
159 0.805822 0.737848 
160 -0.124907 -0.252536 
161 -1.64843 -1.26879 
162 0.371569 0.61883 
163 0.170461 -0.0635751 
164 1.55555 0.545656 
165 0.205623 0.180037 
166 0.393558 0.158755 
167 0.574558 0.754508 
168 -1.93882 -1.33852 
169 -0.0406547 -0.555378 
170 0.950681 1.08473 
171 2.1281 1.18827 
172 2.61643 1.54043 
173 -0.222242 -0.518638 
174 -0.765563 -0.51643 
175 -0.700999 -0.262315 
176 1.76251 0.886706 
177 -1.85808 -1.32469 
178 -1.35056 -0.692398 
179 -0.166867 0.162539 
180 -0.601001 -0.109538 
181 0.325808 -0.0208787 
182 -0.358697 -0.391778 
183 1.26257 0.462681 
184 -0.826051 -0.426912 
185 0.427644 0.202555 
186 1.31612 0.814075 
187 0.129565 -0.0561965 
188 -0.714022 -0.423153 
189 -0.0454621 -0.601775 
190 1.77733 0.992667 
191 0.178456 -0.144327 
192 0.956356 0.719965 
193 -0.237529 -0.351347 
194 0.638243 0.465755 
195 -0.366544 0.272564 
196 -0.63867 -0.194385 
197 0.169285 0.362709 
198 1.15034 0.830266 
199 -0.0110776 0.147891 
200 -0.848006 -0.518042 
201 -0.0190521 -0.0155688 
202 1.28712 1.04762 
203 0.725745 0.530013 
204 -1.99961 -1.25449 
205 -1.07359 -0.257415 
206 -1.91824 -1.09386 
207 1.22564 0.951705 
208 0.100592 0.470558 
209 0.346101 0.543724 
210 0.161926 0.470588 
211 -0.330666 -0.0621385 
212 0.222488 -0.52029 
213 -1.45623 -1.04907 
214 0.12946 -0.261605 
215 0.807839 0.694421 
216 -0.0533896 -0.165729 
217 0.456677 0.185147 
218 1.05018 1.14973 
219 1.12759 1.269 
220 -1.19455 -0.919993 
221 -0.521621 -0.331134 
222 0.384475 0.595801 
223 -2.41727 -1.61267 
224 0.31111 0.631574 
225 0.311803 0.249357 
226 0.349446 0.201556 
227 0.545676 0.305207 
228 -0.162469 -0.701946 
229 -0.0633398 0.29586 
230 -1.23192 -0.641394 
231 -0.459063 -0.00453461 
232 1.03207 0.656288 
233 -0.256556 -0.607613 
234 0.431048 0.117809 
235 0.878715 0.410255 
236 -0.895583 -0.923486 
237 -1.80235 -1.05945 
238 -0.064316 0.376526 
239 0.300461 -0.418592 
240 0.100743 0.500972 
241 -0.942231 -0.703278 
242 0.545035 0.212519 
243 0.500778 -0.277771 
244 -1.25477 -0.697141 
245 -0.46573 -0.0715632 
246 -1.62809 -0.777192 
247 2.20135 1.47584 
248 0.225456 0.0664862 
249 0.816056 0.868268 
250 0.612632 0.767228 
251 1.97374 1.50725 
252 -0.428023 -0.704978 
253 -1.12464 -0.885576 
254 -1.42914 -0.857382 
255 0.894625 1.07203 
256 -0.619333 -0.462573 
257 0.115952 0.27858 
258 2.36876 1.17671 
259 -0.0416616 0.281763 
260 0.634394 0.0338126 
261 1.51436 0.890432 
262 1.33802 0.157507 
263 1.43574 0.921249 
264 2.50947 1.46468 
265 0.580555 -0.0734844 
266 -1.79837 -1.57746 
267 -0.306218 0.0283288 
268 0.442981 0.694019 
269 -0.101336 -0.101554 
270 -0.928333 -0.389942 
271 0.944324 0.0959105 
272 1.48563 0.940201 
273 -0.378351 -0.0837022 
274 0.433673 0.149403 
275 1.40904 1.06578 
276 1.22767 0.841467 
277 0.197335 0.488187 
278 -1.53953 -1.53548 
279 1.97589 1.22255 
280 -0.518002 -0.0734759 
281 1.02553 1.19471 
282 1.84794 1.27752 
283 -0.0651169 0.602567 
284 0.0518611 -0.329134 
285 1.42359 0.839097 
286 0.625856 0.471705 
287 -0.399607 -0.604016 
288 0.854315 0.603586 
289 -0.794068 -0.320413 
290 0.884756 -0.0954138 
291 0.363865 0.478197 
292 1.23779 0.417401 
293 -1.09349 -0.974038 
294 -0.0643241 -0.729304 
295 0.206259 0.136751 
296 0.029455 -0.00202524 
297 -1.20169 -0.916958 
298 -0.52298 0.141584 
299 0.755845 0.358155 
terror=7.88513
l1pen=14.804
l2pen=78.529
0.699432 2.29336 2.25672 -1.45739 8.09713 
F= 0.699432*x2+2.29336* ( ( ( (1/(x2 - (-5.90106)))  -  (1/(x3 - (-9.99949))) ) ) ) +2.25672* ( ( (1/(x1 - (7.31982)))  -  (1/(x4 - (-9.17433))) )  *  (x1) ) -1.45739* (1/(x4 - (-9.17433))) +8.09713* ( ( ( (x3 /  ( (x3 - (-9.99949)) ) ) ) ) ) 
4 2 0 0 0 0 0 0 0 0 2 1 1 6 2 -5.90106 6 3 -9.99949 0 2 1 6 1 7.31982 6 4 -9.17433 5 1 6 4 -9.17433 4.94066e-324 6.94063e-320 3.95253e-322 0 0 0 0 0 1 1 3 4 3 3 5 3 -9.99949 
0 2 0 0 0 0 0 0 0 0 0 0 0 0 2 1 0 2 1 0 0 0 0 2 1 0 2 1 0 2 0 2 1 0 0 0 0 0 0 0 0 0 0 0 0 2 0 0 2 1 
