7.5980800000000004
7.5980800000000004
7.5980800000000004
7.5980800000000004
7.5980800000000004
7.5980800000000004
7.5980800000000004
7.5980800000000004
7.5980800000000004
7.5980800000000004
7.5980999999999996
7.5980999999999996
7.5980999999999996
7.6081799999999999
7.6081799999999999
7.6081799999999999
7.6081799999999999
7.6081799999999999
7.6081799999999999
7.6081799999999999
7.6081799999999999
7.6081799999999999
7.6081799999999999
7.6081799999999999
7.6081799999999999
7.6081799999999999
7.6081799999999999
7.6081799999999999
7.6081799999999999
7.6081799999999999
7.6081799999999999
7.6081799999999999
7.6081799999999999
7.6081799999999999
7.6081799999999999
7.6081799999999999
7.6081799999999999
7.6081799999999999
7.6081799999999999
7.6081799999999999
7.6081799999999999
7.6081799999999999
7.6081799999999999
7.6081799999999999
7.6081799999999999
7.6081799999999999
7.6081799999999999
7.6081799999999999
7.6081799999999999
7.6081799999999999
7.6081799999999999
7.6081799999999999
7.6081799999999999
7.6081799999999999
7.6081799999999999
7.6081799999999999
7.6081799999999999
7.6081799999999999
7.6081799999999999
7.6081799999999999
7.6081799999999999
7.6081799999999999
7.6081799999999999
7.6081799999999999
7.6081799999999999
7.6081799999999999
7.6081799999999999
7.6081799999999999
7.6081799999999999
7.6081799999999999
7.6081799999999999
7.6081799999999999
7.6081799999999999
7.6081799999999999
7.6081799999999999
7.6081799999999999
7.6081799999999999
7.6081799999999999
7.6081799999999999
7.6081799999999999
7.6081799999999999
7.6081799999999999
7.6081799999999999
7.6081799999999999
7.6081799999999999
7.6081799999999999
7.6081799999999999
7.6081799999999999
7.6081799999999999
7.6081799999999999
7.6081799999999999
7.6081799999999999
7.6081799999999999
7.6081799999999999
7.6081799999999999
7.6081799999999999
7.6081799999999999
7.6081799999999999
7.6081799999999999
7.6081799999999999
7.6081799999999999
7.6081799999999999
7.6081799999999999
7.6081799999999999
7.6081799999999999
7.6081799999999999
7.6081799999999999
7.6081799999999999
7.6081799999999999
7.6081799999999999
7.6081799999999999
7.6081799999999999
7.6081799999999999
7.6081799999999999
7.6081799999999999
7.6081799999999999
7.6081799999999999
7.6081799999999999
7.6081799999999999
7.6081799999999999
7.6081799999999999
7.6081799999999999
7.6081799999999999
7.6081799999999999
7.6081799999999999
7.6081799999999999
7.6081799999999999
7.6081799999999999
7.6081799999999999
7.6081799999999999
7.6081799999999999
7.6081799999999999
7.6081799999999999
7.6081799999999999
7.6081799999999999
7.6081799999999999
7.6081799999999999
7.6081799999999999
7.6081799999999999
7.6081799999999999
7.6081799999999999
7.6081799999999999
7.6081799999999999
7.6081799999999999
7.6081799999999999
7.6081799999999999
7.6081799999999999
7.6081799999999999
7.6081799999999999
7.6081799999999999
7.6081799999999999
7.6081799999999999
7.6081799999999999
7.6081799999999999
7.6081799999999999
7.6081799999999999
7.6081799999999999
7.6081799999999999
7.6081799999999999
7.6081799999999999
7.6081799999999999
7.6081799999999999
7.6081799999999999
7.6081799999999999
7.6081799999999999
7.6081799999999999
7.6081799999999999
7.6081799999999999
7.6081799999999999
7.6081799999999999
7.6081799999999999
7.6081799999999999
7.6081799999999999
7.6081799999999999
7.6081799999999999
7.6081799999999999
7.6081799999999999
7.6081799999999999
7.6081799999999999
7.6081799999999999
7.6081799999999999
7.6081799999999999
7.6081799999999999
7.6081799999999999
7.6081799999999999
7.6081799999999999
7.6081799999999999
7.6081799999999999
7.6081799999999999
7.6081799999999999
7.6081799999999999
7.6081799999999999
7.6081799999999999
7.6081799999999999
7.6081799999999999
7.6081799999999999
7.6081799999999999
7.6081799999999999
7.6081799999999999
7.6081799999999999
7.6081799999999999
7.6081799999999999
7.6081799999999999
7.6081799999999999
7.6081799999999999
7.6081899999999996
7.6082000000000001
7.6082000000000001
7.6082000000000001
7.6082000000000001
7.6082700000000001
7.6082900000000002
7.6082900000000002
7.6082900000000002
7.6082900000000002
7.6083400000000001
7.6083999999999996
7.6083999999999996
7.6083999999999996
7.6083999999999996
7.6086499999999999
7.6087800000000003
7.6087800000000003
7.6087800000000003
7.6087800000000003
7.6092599999999999
7.6093200000000003
7.6093200000000003
7.6093200000000003
7.6093700000000002
7.6096199999999996
7.6097599999999996
7.6097599999999996
7.6097599999999996
7.6097599999999996
7.6098600000000003
7.6099300000000003
7.6099300000000003
7.6099300000000003
7.6099300000000003
7.6101400000000003
7.6105000000000000
7.6105000000000000
7.6105000000000000
7.6105000000000000
7.6111199999999997
7.6113200000000001
7.6113200000000001
7.6113200000000001
7.6113200000000001
7.6115899999999996
7.6117100000000004
7.6117100000000004
7.6117299999999997
7.6117299999999997
7.6118899999999998
7.6120099999999997
7.6120099999999997
7.6120099999999997
7.6120099999999997
7.6121200000000000
7.6121699999999999
7.6121699999999999
7.6121699999999999
7.6121699999999999
7.6122399999999999
7.6123399999999997
7.6130899999999997
7.6130899999999997
7.6130899999999997
7.6130899999999997
7.6130899999999997
7.6130899999999997
7.6130899999999997
7.6130899999999997
7.6130899999999997
7.6130899999999997
7.6130899999999997
7.6130899999999997
7.6130899999999997
7.6130899999999997
7.6130899999999997
7.6130899999999997
7.6130899999999997
7.6130899999999997
7.6130899999999997
7.6130899999999997
7.6130899999999997
7.6130899999999997
7.6130899999999997
7.6130899999999997
7.6130899999999997
7.6130899999999997
7.6130899999999997
7.6130899999999997
7.6130899999999997
7.6130899999999997
7.6130899999999997
7.6130899999999997
7.6130899999999997
7.6130899999999997
7.6130899999999997
7.6130899999999997
7.6130899999999997
7.6130899999999997
7.6130899999999997
7.6130899999999997
7.6130899999999997
7.6130899999999997
7.6130899999999997
7.6130899999999997
7.6130899999999997
7.6130899999999997
7.6130899999999997
7.6130899999999997
7.6130899999999997
7.6130899999999997
7.6130899999999997
7.6130899999999997
7.6130899999999997
7.6130899999999997
7.6130899999999997
7.6130899999999997
7.6130899999999997
7.6130899999999997
7.6130899999999997
7.6130899999999997
7.6130899999999997
7.6130899999999997
7.6130899999999997
7.6130899999999997
7.6131000000000002
7.6131000000000002
7.6131000000000002
7.6131000000000002
7.6131000000000002
7.6131000000000002
7.6131500000000001
7.6131500000000001
7.6131500000000001
7.6131500000000001
7.6131500000000001
7.6131500000000001
7.6131500000000001
7.6131500000000001
7.6131500000000001
7.6131500000000001
7.6131500000000001
7.6131500000000001
7.6131500000000001
7.6131500000000001
7.6131500000000001
7.6131500000000001
7.6131500000000001
7.6131500000000001
7.6131500000000001
7.6131500000000001
7.6131500000000001
7.6131500000000001
7.6131500000000001
7.6131500000000001
7.6131500000000001
7.6131500000000001
7.6131500000000001
7.6131500000000001
7.6131500000000001
7.6131500000000001
7.6131500000000001
7.6131500000000001
7.6131599999999997
7.6132099999999996
7.6134300000000001
7.6134300000000001
7.6134300000000001
7.6134300000000001
7.6154599999999997
7.6154599999999997
7.6169300000000000
7.6169300000000000
7.6169300000000000
7.6187699999999996
7.6197699999999999
7.6197699999999999
7.6206300000000002
7.6206300000000002
7.6243200000000000
7.6274899999999999
7.6274899999999999
7.6274899999999999
7.6274899999999999
7.6377899999999999
7.6465800000000002
7.6465800000000002
7.6465800000000002
7.6465800000000002
7.6645899999999996
7.6747800000000002
7.6747800000000002
7.6747800000000002
7.6747800000000002
7.6986499999999998
7.7106300000000001
7.7106300000000001
7.7106300000000001
7.7106300000000001
7.7423299999999999
7.7745800000000003
7.7745800000000003
7.7745800000000003
7.7745800000000003
7.7745800000000003
7.7745800000000003
7.8323099999999997
7.8323099999999997
7.8323099999999997
7.8323099999999997
7.8323099999999997
7.8323099999999997
7.8323099999999997
7.8323099999999997
7.8323099999999997
7.8323099999999997
7.8323099999999997
7.8323099999999997
7.8323099999999997
7.8323099999999997
7.8323099999999997
7.8323099999999997
7.8323099999999997
7.8323099999999997
7.8323099999999997
7.8323099999999997
7.8323099999999997
7.8323099999999997
7.8323099999999997
7.8323099999999997
7.8323099999999997
7.8323099999999997
7.8323099999999997
7.8323099999999997
7.8323099999999997
7.8323099999999997
7.8323099999999997
7.8323099999999997
7.8323099999999997
7.8323099999999997
7.8323299999999998
7.8323299999999998
7.8323700000000001
7.8323700000000001
7.8337700000000003
7.8639999999999999
7.8639999999999999
7.9147400000000001
7.9147400000000001
7.9147400000000001
7.9147400000000001
7.9556500000000003
7.9741600000000004
7.9741600000000004
7.9741600000000004
8.0474800000000002
8.0661900000000006
8.0661900000000006
8.0661900000000006
8.1067000000000000
8.2674000000000003
8.2674000000000003
9.1314200000000003
9.1883599999999994
9.2611899999999991
9.2719500000000004
9.2719500000000004
9.4084500000000002
9.4084500000000002
9.4084500000000002
9.4084500000000002
12.9064999999999994
13.0653000000000006
16.4938000000000002
16.4938000000000002
16.4938000000000002
16.4938000000000002
21.0940000000000012
21.6076000000000015
21.6076000000000015
22.2927999999999997
22.2927999999999997
22.2927999999999997
26.2754000000000012
71.3118999999999943
71.3118999999999943
82.3152999999999935
82.3152999999999935
82.3152999999999935
82.3152999999999935
82.3152999999999935
82.3152999999999935
82.3152999999999935
82.3152999999999935
82.3153999999999968
