7.3660399999999999
7.3660500000000004
7.3660500000000004
7.3660500000000004
7.3660500000000004
7.3660600000000001
7.3660600000000001
7.3660699999999997
7.3660699999999997
7.3660699999999997
7.3660800000000002
7.3661199999999996
7.3661199999999996
7.3661199999999996
7.3661199999999996
7.3662900000000002
7.3668699999999996
7.3668699999999996
7.3668699999999996
7.3668699999999996
7.3675600000000001
7.3688300000000000
7.3688300000000000
7.3688300000000000
7.3689499999999999
7.3726099999999999
7.3727999999999998
7.3727999999999998
7.3727999999999998
7.3732600000000001
7.3739299999999997
7.3748199999999997
7.3748199999999997
7.3748199999999997
7.3748199999999997
7.3755400000000000
7.3771300000000002
7.3771300000000002
7.3771300000000002
7.3771800000000001
7.3797100000000002
7.3820899999999998
7.3820899999999998
7.3820899999999998
7.3820899999999998
7.3820899999999998
7.3843300000000003
7.3843300000000003
7.3843300000000003
7.3843300000000003
7.3874000000000004
7.3874000000000004
7.3874000000000004
7.3890000000000002
7.3890000000000002
7.3890000000000002
7.3893000000000004
7.3893000000000004
7.3893000000000004
7.3903200000000000
7.3903200000000000
7.3903200000000000
7.3903200000000000
7.3903200000000000
7.3904300000000003
7.3904300000000003
7.3904300000000003
7.3904300000000003
7.3904300000000003
7.3904300000000003
7.3904300000000003
7.3960200000000000
7.3960200000000000
7.3974399999999996
7.3974500000000001
7.3974500000000001
7.3974500000000001
7.3974500000000001
7.4128800000000004
7.4128800000000004
7.4130099999999999
7.4130099999999999
7.4130099999999999
7.4130099999999999
7.4279999999999999
7.4279999999999999
7.4321999999999999
7.4321999999999999
7.4321999999999999
7.4405000000000001
7.4545000000000003
7.4726299999999997
7.4726299999999997
7.4726299999999997
7.4726800000000004
7.4971500000000004
7.5061999999999998
7.5061999999999998
7.5352800000000002
7.5352800000000002
7.5352800000000002
7.5352800000000002
7.5352800000000002
7.5352800000000002
7.5352800000000002
7.5352800000000002
7.5352800000000002
7.5352800000000002
7.5352800000000002
7.5352800000000002
7.5352800000000002
7.5352800000000002
7.5352800000000002
7.5352800000000002
7.5352800000000002
7.5352800000000002
7.5352800000000002
7.5352800000000002
7.5352800000000002
7.5352800000000002
7.5352800000000002
7.5352800000000002
7.5352800000000002
7.5352800000000002
7.5352800000000002
7.5352800000000002
7.5352899999999998
7.5352899999999998
7.5352899999999998
7.5352899999999998
7.5353000000000003
7.5353100000000000
7.5353100000000000
7.5353100000000000
7.5353100000000000
7.5353100000000000
7.5353199999999996
7.5353199999999996
7.5353199999999996
7.5353199999999996
7.5353300000000001
7.5353300000000001
7.5353300000000001
7.5353300000000001
7.5353300000000001
7.5353300000000001
7.5353399999999997
7.5353399999999997
7.5353399999999997
7.5353399999999997
7.5353399999999997
7.5361900000000004
7.5361900000000004
7.5361900000000004
7.5361900000000004
7.5361900000000004
7.5364199999999997
7.5364199999999997
7.5364199999999997
7.5364599999999999
7.5364599999999999
7.5364599999999999
7.5364599999999999
7.5364599999999999
7.5364599999999999
7.5382100000000003
7.5382199999999999
7.5382199999999999
7.5518500000000000
7.5518500000000000
7.5518500000000000
7.5518599999999996
7.5530700000000000
7.5530700000000000
7.5530700000000000
7.5530700000000000
7.5530700000000000
7.5530700000000000
7.5530700000000000
7.5530700000000000
7.5530700000000000
7.5530700000000000
7.5530700000000000
7.5530700000000000
7.5530700000000000
7.5530700000000000
7.5530700000000000
7.5530700000000000
7.5530700000000000
7.5530700000000000
7.5530799999999996
7.5531300000000003
7.5531300000000003
7.5531300000000003
7.5531300000000003
7.5532300000000001
7.5535199999999998
7.5535800000000002
7.5535800000000002
7.5535800000000002
7.5538900000000000
7.5564799999999996
7.5564799999999996
7.5564799999999996
7.5564799999999996
7.5612899999999996
7.5667600000000004
7.5667600000000004
7.5667600000000004
7.5667600000000004
7.5767199999999999
7.5790600000000001
7.5798199999999998
7.5798199999999998
7.5798199999999998
7.5819999999999999
7.5850700000000000
7.5850700000000000
7.5850700000000000
7.5850700000000000
7.5919600000000003
7.5947300000000002
7.5947300000000002
7.5947300000000002
7.5952500000000001
7.5984499999999997
7.6012500000000003
7.6012500000000003
7.6012500000000003
7.6012500000000003
7.6044900000000002
7.6059900000000003
7.6059900000000003
7.6059900000000003
7.6059900000000003
7.6073500000000003
7.6091100000000003
7.6091100000000003
7.6091100000000003
7.6091100000000003
7.6109499999999999
7.6121499999999997
7.6121499999999997
7.6121499999999997
7.6121499999999997
7.6134700000000004
7.6141899999999998
7.6141899999999998
7.6141899999999998
7.6141899999999998
7.6151600000000004
7.6156300000000003
7.6156300000000003
7.6156300000000003
7.6156600000000001
7.6164800000000001
7.6167999999999996
7.6167999999999996
7.6167999999999996
7.6167999999999996
7.6172700000000004
7.6173999999999999
7.6173999999999999
7.6173999999999999
7.6175499999999996
7.6178600000000003
7.6180300000000001
7.6181000000000001
7.6181000000000001
7.6181000000000001
7.6183199999999998
7.6185400000000003
7.6185400000000003
7.6185400000000003
7.6185400000000003
7.6188500000000001
7.6189900000000002
7.6189900000000002
7.6189900000000002
7.6191199999999997
7.6192299999999999
7.6194699999999997
7.6194699999999997
7.6195100000000000
7.6195100000000000
7.6197499999999998
7.6198600000000001
7.6198600000000001
7.6198600000000001
7.6199700000000004
7.6199700000000004
7.6200500000000000
7.6200500000000000
7.6200500000000000
7.6200500000000000
7.6200500000000000
7.6204599999999996
7.6204999999999998
7.6204999999999998
7.6204999999999998
7.6209800000000003
7.6211099999999998
7.6211399999999996
7.6212799999999996
7.6212799999999996
7.6213600000000001
7.6214000000000004
7.6214100000000000
7.6214100000000000
7.6214100000000000
7.6214100000000000
7.6226200000000004
7.6226200000000004
7.6226200000000004
7.6226200000000004
7.6260500000000002
7.6260500000000002
7.6260500000000002
7.6260500000000002
7.6260500000000002
7.6284400000000003
7.6284400000000003
7.6284400000000003
7.6494799999999996
7.7675900000000002
7.7675900000000002
7.7675900000000002
7.7675900000000002
7.7675900000000002
7.7675900000000002
7.7675900000000002
7.7675900000000002
7.7675900000000002
7.7675900000000002
7.7675900000000002
7.7675900000000002
7.7675900000000002
7.7675900000000002
7.7675900000000002
7.7675900000000002
7.7675900000000002
7.7675999999999998
7.7675999999999998
7.7675999999999998
7.7676100000000003
7.7676100000000003
7.7676400000000001
7.7676400000000001
7.7676400000000001
7.7676400000000001
7.7685800000000000
7.7719100000000001
7.7719100000000001
7.7719100000000001
7.7719100000000001
7.7719399999999998
7.7961299999999998
7.7961299999999998
7.7961299999999998
7.7961299999999998
7.8006099999999998
7.9689500000000004
7.9689500000000004
7.9689500000000004
7.9689500000000004
7.9718200000000001
7.9729500000000000
7.9729500000000000
7.9729500000000000
7.9734200000000000
7.9748500000000000
7.9750800000000002
7.9753699999999998
7.9753699999999998
7.9753699999999998
7.9757999999999996
7.9759799999999998
7.9759799999999998
7.9759799999999998
7.9759799999999998
7.9760900000000001
7.9763200000000003
7.9763200000000003
7.9763200000000003
7.9763200000000003
7.9765899999999998
7.9766700000000004
7.9766700000000004
7.9766700000000004
7.9766700000000004
7.9767299999999999
7.9768400000000002
7.9768900000000000
7.9768900000000000
7.9768900000000000
7.9768900000000000
7.9768900000000000
7.9771200000000002
7.9771200000000002
7.9771200000000002
7.9790599999999996
7.9790599999999996
7.9793700000000003
7.9793700000000003
7.9793700000000003
7.9902699999999998
7.9902699999999998
7.9902699999999998
8.0223800000000001
8.0223800000000001
8.0752500000000005
8.0995299999999997
8.1423000000000005
8.1423000000000005
8.1423000000000005
8.1423000000000005
8.1423000000000005
8.1423000000000005
8.1423000000000005
8.1423000000000005
8.1423000000000005
8.1423000000000005
8.1423000000000005
8.1423000000000005
8.1423000000000005
8.1423000000000005
8.1423000000000005
8.1423000000000005
8.1423000000000005
8.1423000000000005
8.1423000000000005
8.1423400000000008
8.1423400000000008
8.1423400000000008
8.1423400000000008
8.1428300000000000
8.1437200000000001
8.1437200000000001
8.1437200000000001
8.1437200000000001
8.1902899999999992
8.1902899999999992
8.1902899999999992
8.1902899999999992
8.4753399999999992
8.5016499999999997
8.5238200000000006
8.5332100000000004
8.5332100000000004
8.6001999999999992
8.6001999999999992
8.6001999999999992
8.6001999999999992
8.6894799999999996
8.6894799999999996
8.6894799999999996
8.6946100000000008
8.6946100000000008
8.6966999999999999
8.6966999999999999
8.7070799999999995
9.5179600000000004
9.5179600000000004
9.5179600000000004
9.5179600000000004
10.3872000000000000
10.3872000000000000
10.3872000000000000
10.4263999999999992
10.4263999999999992
10.4263999999999992
10.4263999999999992
10.4263999999999992
10.4263999999999992
11.8363999999999994
11.8996999999999993
11.9909999999999997
12.5391999999999992
12.6509999999999998
12.6509999999999998
12.6509999999999998
12.6509999999999998
12.6509999999999998
12.6509999999999998
13.4845000000000006
16.0421000000000014
16.0421000000000014
19.2285000000000004
19.2510000000000012
19.2510000000000012
20.0166000000000004
23.3660999999999994
35.0082999999999984
38.3849999999999980
38.3849999999999980
39.3699000000000012
39.3699000000000012
40.2261999999999986
40.2261999999999986
68.9102000000000032
87.7642000000000024
