0 -1.4637 -0.823147 
1 0.508845 -0.408547 
2 0.0694206 0.780314 
3 -1.1624 -0.7175 
4 -1.68479 -0.759903 
5 -0.257612 -0.402331 
6 -0.501175 -0.222881 
7 -0.0784566 0.041908 
8 0.632212 0.210069 
9 0.27365 0.231161 
10 0.215874 0.580769 
11 -0.189841 -0.286949 
12 -0.0657716 -0.590639 
13 -0.342885 -0.338235 
14 0.0950127 -0.618006 
15 0.00266578 0.00301219 
16 0.734619 0.0957455 
17 -0.342704 -0.258163 
18 -0.802198 -0.701848 
19 0.752197 0.588816 
20 0.359727 -0.181709 
21 0.346099 0.517103 
22 0.448476 0.395636 
23 0.747828 0.358251 
24 -0.119013 0.114747 
25 -0.839706 -0.597863 
26 0.611156 0.676177 
27 -0.00971773 -0.0294076 
28 0.0402982 0.0958455 
29 0.0835155 0.212822 
30 -0.410824 -0.458499 
31 0.462135 0.359852 
32 -1.47094 -0.910318 
33 0.0957534 0.459246 
34 1.25036 0.842701 
35 1.07566 0.388982 
36 0.107209 -0.487664 
37 -0.307483 0.61302 
38 0.060431 -0.267888 
39 -0.414762 -0.341264 
40 0.307658 0.154773 
41 -0.317588 -0.545814 
42 -0.9845 -0.756909 
43 -0.645669 -0.567383 
44 0.199999 0.0931394 
45 0.202874 0.458927 
46 0.0229235 0.587006 
47 0.21308 0.0693713 
48 0.654627 1.0149 
49 1.44777 0.84372 
50 -0.330155 -0.101825 
51 0.0866866 0.0861748 
52 -0.0167028 -0.393425 
53 0.27282 0.346337 
54 0.0417568 -0.154746 
55 -0.454308 -0.405867 
56 0.460299 0.405892 
57 -0.0790301 0.678144 
58 -0.367453 -0.422699 
59 0.68954 0.317974 
60 0.113753 0.293786 
61 0.938292 0.666001 
62 0.211686 -0.158489 
63 0.885838 0.459405 
64 -0.985257 -0.622777 
65 -0.518811 -0.774194 
66 0.0104028 -0.0645049 
67 1.99692 1.06912 
68 -1.08045 -0.748339 
69 -0.195839 -0.335412 
70 -0.500869 -0.958315 
71 -0.0315724 -0.16766 
72 -1.60692 -0.894076 
73 0.745277 0.348518 
74 1.24926 0.898949 
75 0.377869 0.03718 
76 0.0154061 -0.0184998 
77 -0.493679 -0.81152 
78 0.506711 0.418264 
79 -0.0552833 -0.285783 
80 0.119721 -0.642861 
81 0.703841 0.389979 
82 0.210137 0.50806 
83 -0.0702986 -0.0882632 
84 -0.153075 0.153569 
85 0.235182 -0.0558051 
86 0.404005 0.264997 
87 -0.266928 -0.0978361 
88 -0.471725 -0.236931 
89 0.0864867 0.0692983 
90 0.810778 0.583882 
91 -0.115474 -0.227449 
92 -1.48934 -0.902671 
93 0.643484 0.390666 
94 0.0228672 -0.412087 
95 0.178412 0.0706307 
96 0.0786184 0.245577 
97 0.193406 -0.085379 
98 -0.00915293 0.51323 
99 0.263779 0.208541 
100 -0.0189499 -0.237165 
101 -0.895384 -0.82106 
102 0.166241 -0.893052 
103 -0.260262 0.207461 
104 -0.101079 -0.440085 
105 1.54273 0.712138 
106 0.000567944 0.286103 
107 -0.288838 -0.401494 
108 -0.250869 0.105594 
109 0.523042 0.388124 
110 0.0401449 0.153854 
111 0.0926024 -0.248662 
112 0.764706 0.317427 
113 -0.0818008 0.0290799 
114 0.0549441 0.0536569 
115 -0.112864 -0.817267 
116 -0.0219242 0.361416 
117 1.37109 0.418511 
118 0.0425584 -0.0288085 
119 0.129672 -0.0680005 
120 0.273057 0.0314516 
121 0.333063 0.75375 
122 0.498084 0.110416 
123 -0.912961 -0.88805 
124 -0.00370236 -0.754051 
125 0.178861 0.390871 
126 0.784088 0.648622 
127 1.20326 0.83095 
128 -0.131917 -0.083939 
129 0.458164 -0.135609 
130 0.334412 0.487389 
131 -0.494209 -0.249481 
132 -0.113536 -0.379519 
133 -1.38089 -0.869908 
134 0.185784 0.275356 
135 -0.0742298 0.2123 
136 0.278142 -0.279391 
137 -0.400902 -0.492514 
138 0.905284 0.6803 
139 0.47208 0.254454 
140 1.06446 0.675129 
141 -0.786042 0.547366 
142 0.788424 0.54948 
143 -0.173524 -0.202536 
144 -0.167605 0.487617 
145 -0.352448 -0.539802 
146 -0.128308 -0.393359 
147 -0.455368 -0.609499 
148 -0.156253 0.177983 
149 -0.166949 -0.0944531 
150 -1.90367 -1.0305 
151 -1.46289 -0.994241 
152 -0.635298 -0.667327 
153 1.09782 0.800947 
154 0.826613 0.874081 
155 -0.299514 0.900684 
156 -0.108009 -0.352405 
157 -0.164381 0.0436286 
158 -0.311163 -0.0593754 
159 0.581136 0.0956354 
160 -0.0500084 0.158274 
161 0.469863 0.462271 
162 0.129659 0.0122485 
163 0.220686 0.256363 
164 2.26605 1.09186 
165 0.135632 -0.192973 
166 1.93722 0.97209 
167 0.0733633 0.760034 
168 -0.182822 0.35826 
169 -0.523951 -0.39975 
170 0.341396 -0.460916 
171 1.02571 0.671951 
172 -2.12956 -1.19665 
173 0.433327 0.253177 
174 -0.3134 -0.597294 
175 -1.43158 -0.959903 
176 0.337455 0.666074 
177 -0.191633 -0.333218 
178 -0.031616 0.342365 
179 -0.0767757 0.31391 
180 0.673416 0.461172 
181 0.980276 0.497857 
182 1.65308 0.857917 
183 0.116809 0.551683 
184 -0.148945 -0.193582 
185 -0.237266 0.925241 
186 0.964752 0.648611 
187 2.06323 0.988059 
188 -0.367435 0.562982 
189 -0.238666 0.183522 
190 -1.81336 -1.02008 
191 -0.011904 -0.631058 
192 0.646612 0.189101 
193 -0.911154 -0.587506 
194 0.00416974 -0.110858 
195 -0.177438 -0.562805 
196 -0.348652 -0.568498 
197 0.483971 0.511592 
198 0.503008 -0.108443 
199 0.0309817 0.0945246 
200 -0.266811 -0.279021 
201 -1.29985 -0.441896 
202 0.0358524 -0.236173 
203 -0.0329943 -0.41853 
204 -0.446527 -0.456801 
205 -0.556292 -0.631632 
206 0.45449 0.614252 
207 -0.162408 0.0549706 
208 -0.766749 -0.633665 
209 0.013011 0.811741 
210 0.714364 0.853056 
211 -0.138611 -0.142923 
212 0.0927967 -0.239858 
213 -0.287702 -0.257956 
214 0.395794 0.362457 
215 0.555755 0.707963 
216 -1.19608 -0.659275 
217 -0.101565 0.261609 
218 -0.560114 -0.639819 
219 0.386927 0.453568 
220 -0.513642 -0.865919 
221 -1.74067 -0.862593 
222 -0.435559 -0.389779 
223 -0.194608 -0.482936 
224 -0.765834 -0.745423 
225 0.65639 0.598179 
226 0.0658668 0.324781 
227 -0.451906 -0.318104 
228 -1.05395 -0.323306 
229 0.361189 0.641891 
230 -0.475072 -0.508143 
231 -0.766434 -0.574726 
232 -0.166271 -0.159099 
233 -0.354969 0.0428836 
234 -0.6723 -0.475521 
235 0.0246445 0.680804 
236 0.0147205 -0.147191 
237 -0.263006 -0.121574 
238 0.265619 0.303337 
239 -0.0109301 -0.072009 
240 -1.59178 -1.02864 
241 -1.45959 -0.965779 
242 -0.3328 -0.320576 
243 -0.403199 -0.747751 
244 0.478765 0.173686 
245 0.359759 -0.258495 
246 0.111989 0.0605 
247 0.0149796 0.0128123 
248 0.343004 -0.151446 
249 0.682482 0.424298 
250 -0.457275 -0.650706 
251 -1.37166 -0.77868 
252 -0.725558 -0.575995 
253 -0.467644 -0.105573 
254 -0.38859 -0.0387849 
255 0.208964 0.0302891 
256 -0.211671 -0.657534 
257 0.277634 -0.121375 
258 1.22071 0.39993 
259 1.10035 0.568422 
260 1.11189 0.780624 
261 -0.111077 -0.054273 
262 -0.503633 -0.162884 
263 -0.168907 0.191932 
264 0.227316 -0.0396846 
265 -0.262057 -0.593918 
266 0.876156 0.841506 
267 -0.0148629 0.204344 
268 -1.78839 -1.21433 
269 -0.616766 -0.0187574 
270 0.425595 -0.10284 
271 -0.783598 -0.563505 
272 0.317034 0.318323 
273 0.530663 0.641763 
274 1.3441 1.00991 
275 -0.149528 -0.300815 
276 0.269338 0.643239 
277 -0.750367 -0.706394 
278 -1.31256 -0.834132 
279 1.19668 0.658141 
280 0.479823 0.0489631 
281 -0.643353 -0.65022 
282 -0.0327564 0.348542 
283 -0.0945589 0.185894 
284 -0.01963 -0.68857 
285 -0.0687721 -0.296397 
286 0.235379 0.389903 
287 0.332734 -0.213413 
288 0.946326 0.702979 
289 -0.186254 -0.184154 
290 0.331073 0.70128 
291 -0.860765 -0.940257 
292 -0.707994 -0.353236 
293 0.99545 0.600745 
294 0.411907 0.245597 
295 0.254873 0.418291 
296 -0.234046 0.0174609 
297 -1.76185 -0.99761 
298 -0.204814 0.143076 
299 -1.16991 -0.731975 
terror=7.2478
l1pen=47.5257
l2pen=354.596
8.55545 -9.51291 -2.06167 0.292755 1.07547 1.08914 7.76998 -7.65985 -7.91444 -1.59403 
F= 8.55545* (1/(x3 - (-8.48464))) -9.51291* (1/(x4 - (9.51687))) -2.06167* (1/(x0 - (4.555))) +0.292755* (x0 - x2) +1.07547* (x0 - (4.555)) +1.08914* ( ( (1/(x0 - (4.555)))  +  ( (x3) ) ) ) +7.76998* (1/(x3 - (-8.48464))) -7.65985* ( ( ( ( ( (1/(x0 - (4.555))) ) ) ) ) ) -7.91444*(0)-1.59403*x0
6 3 -8.48464 4.68217e-310 1.16819e-307 9.45684e-308 4.45037e-308 4.45036e-308 6 4 9.51687 1.27946e-307 9.457e-308 1.39072e-307 1.05696e-307 1.00132e-307 6 0 4.555 4.45038e-308 1.33507e-307 9.45684e-308 1.05694e-307 1.16821e-307 1 4 0 4 2 4.45036e-308 1.22383e-307 1.16821e-307 5 0 4.555 9.45684e-308 4.45036e-308 1.05695e-307 1.33509e-307 1.16821e-307 3 0 6 0 4.555 0 5 3 6 3 -8.48464 9.45684e-308 4.45036e-308 4.45039e-308 1.00132e-307 1.05696e-307 3 2 1 1 1 6 0 4.555 2 3 3 3 1 3 2 5 4 0 1.11258e-307 1.00133e-307 8.90074e-308 1.05696e-307 1.22383e-307 1.27944e-307 
0 2 1 32749 3604529 3473465 3276832 3538992 0 2 1 3670072 2097204 3538993 3735606 3735584 0 2 1 6422538 7602277 2097249 3014712 3473461 0 0 2 0 2 3473454 3276849 3211321 0 2 1 3014706 3538992 3538993 3407927 3604533 0 0 0 2 1 0 0 2 0 2 1 3735607 2097209 3014705 3670064 3211321 0 0 0 0 0 0 2 1 0 0 0 0 0 0 0 0 0 2 3407924 3276852 3211313 2097203 3211309 3473454 
