0 -0.219368 -0.272123 
1 0.659638 0.526574 
2 -0.329145 -0.281872 
3 0.545597 0.643134 
4 -2.09951 -1.96052 
5 0.65622 0.618402 
6 -0.0694321 0.275776 
7 -0.584057 -0.294051 
8 -0.559328 -0.441051 
9 -0.0713581 0.237442 
10 0.772368 0.846717 
11 -1.36129 -1.15158 
12 -0.229888 -0.354034 
13 -1.03304 -0.995448 
14 0.310417 0.557683 
15 -0.779496 -0.865465 
16 0.0433129 0.212935 
17 1.18133 1.34444 
18 -0.951198 -1.10381 
19 1.49587 1.19821 
20 0.476802 0.631922 
21 -1.66695 -1.59957 
22 -0.20231 -0.173658 
23 0.513342 0.396789 
24 -1.32024 -1.12431 
25 -1.14796 -1.36202 
26 0.2469 0.271426 
27 -1.64921 -1.82247 
28 0.611238 0.550821 
29 -0.00220991 0.124703 
30 -1.31643 -0.860015 
31 0.0730549 -0.197592 
32 0.0297064 -0.00591195 
33 0.138156 -0.112111 
34 -1.47601 -1.12287 
35 0.374348 0.533294 
36 -0.890921 -0.628251 
37 -1.34518 -1.3271 
38 0.29853 0.301682 
39 -1.26809 -0.826235 
40 -0.230061 -0.591503 
41 0.62487 0.550309 
42 1.22271 1.08514 
43 -1.9504 -2.07781 
44 0.0938187 0.183676 
45 -0.0694565 -0.0780069 
46 -0.116209 0.29109 
47 -0.0443265 -0.214896 
48 1.00379 0.908249 
49 -0.0693958 -0.00796587 
50 -0.207941 -0.155759 
51 0.728992 0.800118 
52 0.628736 0.57278 
53 -0.248166 -0.00856526 
54 -0.792807 -0.958463 
55 0.502612 0.824564 
56 0.111632 -0.0881983 
57 1.37098 1.14721 
58 -0.877111 -0.995545 
59 -0.660136 -0.713393 
60 -0.10799 0.389288 
61 -0.1313 -0.0678621 
62 -1.24837 -1.21601 
63 0.442901 0.181546 
64 -0.839503 -1.08793 
65 1.23858 1.10976 
66 -0.675296 -0.401629 
67 -0.0494802 -0.388142 
68 0.174223 0.282276 
69 0.0811568 -0.0213281 
70 -0.690304 -0.365919 
71 0.291397 0.229911 
72 -0.881898 -0.716187 
73 0.0446732 0.0526859 
74 -0.191785 -0.175508 
75 -0.37649 -0.560091 
76 -0.471707 -0.332961 
77 0.916706 0.999589 
78 -1.04858 -1.32968 
79 -1.00938 -1.1252 
80 1.40774 0.966348 
81 -0.199105 -0.00292714 
82 -1.48801 -1.15611 
83 0.863461 0.743423 
84 -0.42402 -0.622794 
85 0.535521 0.605574 
86 -0.729653 -1.06952 
87 1.07834 0.954153 
88 0.122212 0.103717 
89 0.0608547 0.148738 
90 -0.587687 -0.860196 
91 0.785592 0.576039 
92 -2.31467 -2.04252 
93 -1.06649 -1.0445 
94 1.5356 1.38815 
95 0.901755 0.608326 
96 -0.298932 -0.149635 
97 -0.358822 -0.330902 
98 0.0529747 0.363288 
99 -0.91197 -0.99098 
100 0.961393 0.986097 
101 -0.523052 -0.505476 
102 0.314923 0.259599 
103 0.446136 0.680185 
104 0.587384 0.547222 
105 0.223404 0.187816 
106 -0.982922 -1.14072 
107 -1.05487 -0.977257 
108 0.705287 0.406129 
109 1.61015 1.65937 
110 1.67498 1.55922 
111 0.749543 0.528281 
112 -0.521129 -0.598256 
113 -0.132855 -0.364058 
114 -0.377681 0.0587332 
115 0.874326 0.815103 
116 1.03366 1.2009 
117 -0.541505 -0.80561 
118 1.24088 1.24704 
119 0.537555 0.516657 
120 0.711091 0.41873 
121 -0.60021 -0.322673 
122 -0.283096 -0.248984 
123 -0.17414 -0.628241 
124 0.229078 0.0572786 
125 -0.980356 -1.19712 
126 0.193866 0.339034 
127 0.448627 0.547649 
128 0.870246 0.846267 
129 -0.0273826 -0.111728 
130 -0.308063 -0.427274 
131 0.0940309 -0.0885947 
132 0.380036 0.187769 
133 -0.263765 -0.491125 
134 -0.397252 -0.225615 
135 -1.20457 -1.04521 
136 -0.697502 -0.474545 
137 -0.400758 -0.41188 
138 0.520442 0.480673 
139 -1.34185 -1.41669 
140 0.531178 0.878524 
141 0.293921 0.0205557 
142 -0.00714776 0.164327 
143 -0.392975 0.0377242 
144 -0.871226 -0.91185 
145 -1.33364 -1.01481 
146 0.145403 0.117977 
147 -1.23765 -1.38681 
148 0.0276431 0.160541 
149 -1.6709 -1.45261 
150 0.118042 0.300724 
151 -0.373563 -0.192082 
152 -1.20357 -0.610894 
153 0.287032 0.628982 
154 -2.02138 -1.97743 
155 0.49671 0.443351 
156 0.910974 0.72819 
157 0.70106 0.297345 
158 -0.634774 -0.546471 
159 0.805822 0.916092 
160 -0.124907 -0.181888 
161 -1.64843 -1.67026 
162 0.371569 0.647959 
163 0.170461 0.243736 
164 1.55555 1.55062 
165 0.205623 0.288583 
166 0.393558 0.505774 
167 0.574558 0.780508 
168 -1.93882 -1.87551 
169 -0.0406547 -0.181608 
170 0.950681 1.09269 
171 2.1281 1.93897 
172 2.61643 2.65595 
173 -0.222242 -0.368681 
174 -0.765563 -0.553226 
175 -0.700999 -0.690269 
176 1.76251 1.87666 
177 -1.85808 -1.79521 
178 -1.35056 -1.07165 
179 -0.166867 -0.0647258 
180 -0.601001 -0.559691 
181 0.325808 0.140001 
182 -0.358697 0.0133338 
183 1.26257 1.09183 
184 -0.826051 -0.875089 
185 0.427644 0.10982 
186 1.31612 1.38216 
187 0.129565 0.0461578 
188 -0.714022 -0.711599 
189 -0.0454621 -0.337686 
190 1.77733 1.66325 
191 0.178456 0.166937 
192 0.956356 0.978429 
193 -0.237529 -0.478396 
194 0.638243 0.450322 
195 -0.366544 -0.131551 
196 -0.63867 -0.53616 
197 0.169285 0.388382 
198 1.15034 1.13471 
199 -0.0110776 -0.09947 
200 -0.848006 -0.918532 
201 -0.0190521 -0.0289448 
202 1.28712 1.43713 
203 0.725745 0.544324 
204 -1.99961 -1.98377 
205 -1.07359 -0.673515 
206 -1.91824 -1.75013 
207 1.22564 1.30272 
208 0.100592 0.206211 
209 0.346101 0.194129 
210 0.161926 0.289135 
211 -0.330666 -0.545381 
212 0.222488 0.275238 
213 -1.45623 -1.45818 
214 0.12946 0.470778 
215 0.807839 0.833571 
216 -0.0533896 0.0536301 
217 0.456677 0.351493 
218 1.05018 1.22504 
219 1.12759 1.39985 
220 -1.19455 -1.19389 
221 -0.521621 -0.312431 
222 0.384475 0.48908 
223 -2.41727 -2.20291 
224 0.31111 0.401545 
225 0.311803 0.13812 
226 0.349446 0.352284 
227 0.545676 0.569316 
228 -0.162469 -0.0678899 
229 -0.0633398 -0.0256802 
230 -1.23192 -1.09894 
231 -0.459063 -0.268856 
232 1.03207 0.772398 
233 -0.256556 -0.168025 
234 0.431048 0.340879 
235 0.878715 0.841627 
236 -0.895583 -0.956484 
237 -1.80235 -1.49343 
238 -0.064316 -0.050051 
239 0.300461 0.179044 
240 0.100743 0.427298 
241 -0.942231 -0.757336 
242 0.545035 0.40507 
243 0.500778 0.418058 
244 -1.25477 -0.976763 
245 -0.46573 -0.230984 
246 -1.62809 -1.28222 
247 2.20135 2.25029 
248 0.225456 0.19599 
249 0.816056 0.991725 
250 0.612632 0.421069 
251 1.97374 1.85698 
252 -0.428023 -0.33154 
253 -1.12464 -1.16677 
254 -1.42914 -1.35671 
255 0.894625 0.855333 
256 -0.619333 -0.915166 
257 0.115952 0.0832254 
258 2.36876 2.29907 
259 -0.0416616 0.093942 
260 0.634394 0.780212 
261 1.51436 1.47142 
262 1.33802 1.31534 
263 1.43574 1.47683 
264 2.50947 2.10198 
265 0.580555 0.717849 
266 -1.79837 -1.95019 
267 -0.306218 -0.2731 
268 0.442981 0.760716 
269 -0.101336 -0.17843 
270 -0.928333 -0.847651 
271 0.944324 0.904835 
272 1.48563 1.36473 
273 -0.378351 -0.426243 
274 0.433673 0.27191 
275 1.40904 1.29801 
276 1.22767 1.19682 
277 0.197335 0.385537 
278 -1.53953 -1.7212 
279 1.97589 1.94551 
280 -0.518002 -0.188246 
281 1.02553 1.34721 
282 1.84794 1.83558 
283 -0.0651169 0.394327 
284 0.0518611 0.282662 
285 1.42359 1.57849 
286 0.625856 0.495143 
287 -0.399607 -0.402935 
288 0.854315 0.8256 
289 -0.794068 -0.443814 
290 0.884756 1.05976 
291 0.363865 0.443269 
292 1.23779 0.979229 
293 -1.09349 -0.833001 
294 -0.0643241 -0.129914 
295 0.206259 -0.0207224 
296 0.029455 -0.143923 
297 -1.20169 -1.16729 
298 -0.52298 -0.213426 
299 0.755845 0.866428 
terror=3.31759
l1pen=15.1522
l2pen=77.2305
1.28545 -1.71018 7.94094 2.70322 1.51244 
F= 1.28545* (x3 + x3) -1.71018* ( (1/(x0 - (8.7172)))  + x3) +7.94094* ( ( ( ( (1/(x0 - (8.7172)))  * x1) ) ) ) +2.70322* ( (1/(x2 - (2.16148)))  -  ( (1/(x4 - (2.43406))) ) ) +1.51244*x2
0 4 3 4 3 0 0 0 0 0 0 6 0 8.7172 4 3 0 0 0 0 1 1 2 2 6 0 8.7172 4 1 3 1 6 2 2.16148 3 6 4 2.43406 1 6 4 2 0 0 0 0 0 0 0 0 
0 0 2 0 2 0 0 0 0 0 0 0 2 1 0 2 0 0 0 0 0 0 0 0 0 2 1 0 2 0 0 0 2 1 0 0 2 1 0 0 0 2 0 0 0 0 0 0 0 0 
