8.3347300000000004
8.3347300000000004
8.3347300000000004
8.3347300000000004
8.3347300000000004
8.3347300000000004
8.3347300000000004
8.3347300000000004
8.3347300000000004
8.3347300000000004
8.3347300000000004
8.3347300000000004
8.3347300000000004
8.3347300000000004
8.3347300000000004
8.3347300000000004
8.3347300000000004
8.3347300000000004
8.3347300000000004
8.3347300000000004
8.3347300000000004
8.3347300000000004
8.3347300000000004
8.3347300000000004
8.3347300000000004
8.3347300000000004
8.3347300000000004
8.3347300000000004
8.3347300000000004
8.3347300000000004
8.3347300000000004
8.3347300000000004
8.3347300000000004
8.3347300000000004
8.3347300000000004
8.3347300000000004
8.3347300000000004
8.3347300000000004
8.3347300000000004
8.3347300000000004
8.3347300000000004
8.3347300000000004
8.3347300000000004
8.3347300000000004
8.3347300000000004
8.3347300000000004
8.3347300000000004
8.3347300000000004
8.3347300000000004
8.3347300000000004
8.3347300000000004
8.3347300000000004
8.3347300000000004
8.3347300000000004
8.3347300000000004
8.3347300000000004
8.3347300000000004
8.3347300000000004
8.3347300000000004
8.3347300000000004
8.3347300000000004
8.3347300000000004
8.3347300000000004
8.3347300000000004
8.3347300000000004
8.3347300000000004
8.3347300000000004
8.3347300000000004
8.3347300000000004
8.3347300000000004
8.3347300000000004
8.3347300000000004
8.3347300000000004
8.3347300000000004
8.3347300000000004
8.3347300000000004
8.3347300000000004
8.3347300000000004
8.3347300000000004
8.3347300000000004
8.3347300000000004
8.3347300000000004
8.3347300000000004
8.3347300000000004
8.3347300000000004
8.3347300000000004
8.3347300000000004
8.3347300000000004
8.3347300000000004
8.3347300000000004
8.3347300000000004
8.3347300000000004
8.3347300000000004
8.3347300000000004
8.3347300000000004
8.3347300000000004
8.3347300000000004
8.3347300000000004
8.3347300000000004
8.3347300000000004
8.3347300000000004
8.3347300000000004
8.3347300000000004
8.3347300000000004
8.3347300000000004
8.3347300000000004
8.3347300000000004
8.3347300000000004
8.3347300000000004
8.3347300000000004
8.3347300000000004
8.3347300000000004
8.3347300000000004
8.3347300000000004
8.3347300000000004
8.3347300000000004
8.3347300000000004
8.3347300000000004
8.3347300000000004
8.3347300000000004
8.3347300000000004
8.3347300000000004
8.3347300000000004
8.3347300000000004
8.3347300000000004
8.3347300000000004
8.3347300000000004
8.3347300000000004
8.3347300000000004
8.3347300000000004
8.3347300000000004
8.3347300000000004
8.3347300000000004
8.3347300000000004
8.3347300000000004
8.3347300000000004
8.3347300000000004
8.3347300000000004
8.3347300000000004
8.3347300000000004
8.3347300000000004
8.3347300000000004
8.3347300000000004
8.3347300000000004
8.3347300000000004
8.3347300000000004
8.3347300000000004
8.3347300000000004
8.3347300000000004
8.3347300000000004
8.3347400000000000
8.3347400000000000
8.3347400000000000
8.3347400000000000
8.3347400000000000
8.3347499999999997
8.3347499999999997
8.3347499999999997
8.3347499999999997
8.3347499999999997
8.3347599999999993
8.3347800000000003
8.3347800000000003
8.3347800000000003
8.3347800000000003
8.3347899999999999
8.3911200000000008
8.3911200000000008
8.4105500000000006
8.4439100000000007
8.4439100000000007
8.4439100000000007
8.4439100000000007
8.4439100000000007
8.4439100000000007
8.4439100000000007
8.4439100000000007
8.4439100000000007
8.4439100000000007
8.4439100000000007
8.4439100000000007
8.4439100000000007
8.4439100000000007
8.4439100000000007
8.4439100000000007
8.4439100000000007
8.4439100000000007
8.4439100000000007
8.4439100000000007
8.4439100000000007
8.4439100000000007
8.4439100000000007
8.4439100000000007
8.4439100000000007
8.4439100000000007
8.4439100000000007
8.4439100000000007
8.4439100000000007
8.4439100000000007
8.4439100000000007
8.4439100000000007
8.4439100000000007
8.4439100000000007
8.4439100000000007
8.4439100000000007
8.4439100000000007
8.4439100000000007
8.4439100000000007
8.4439100000000007
8.4439100000000007
8.4439100000000007
8.4439100000000007
8.4439100000000007
8.4439100000000007
8.4439100000000007
8.4439100000000007
8.4439100000000007
8.4439100000000007
8.4439100000000007
8.4439100000000007
8.4439100000000007
8.4439100000000007
8.4439100000000007
8.4439100000000007
8.4439100000000007
8.4439100000000007
8.4439100000000007
8.4439100000000007
8.4439100000000007
8.4439100000000007
8.4439100000000007
8.4439100000000007
8.4439100000000007
8.4439100000000007
8.4439100000000007
8.4439100000000007
8.4439100000000007
8.4439100000000007
8.4439100000000007
8.4439100000000007
8.4439100000000007
8.4439100000000007
8.4439100000000007
8.4439100000000007
8.4439100000000007
8.4439100000000007
8.4439100000000007
8.4439100000000007
8.4439100000000007
8.4439100000000007
8.4439100000000007
8.4439100000000007
8.4439100000000007
8.4439100000000007
8.4439100000000007
8.4439100000000007
8.4439100000000007
8.4439100000000007
8.4439100000000007
8.4439100000000007
8.4439100000000007
8.4439100000000007
8.4439100000000007
8.4439100000000007
8.4439100000000007
8.4439100000000007
8.4439100000000007
8.4439100000000007
8.4439100000000007
8.4439100000000007
8.4439100000000007
8.4439100000000007
8.4439100000000007
8.4439100000000007
8.4439100000000007
8.4439100000000007
8.4439100000000007
8.4439100000000007
8.4439100000000007
8.4439100000000007
8.4442900000000005
8.4445499999999996
8.4445499999999996
8.4445499999999996
8.4445499999999996
8.4453800000000001
8.4454499999999992
8.4454899999999995
8.4454899999999995
8.4456299999999995
8.4457500000000003
8.4458400000000005
8.4458400000000005
8.4458400000000005
8.4458400000000005
8.4460400000000000
8.4461099999999991
8.4461099999999991
8.4461399999999998
8.4461399999999998
8.4462899999999994
8.4463600000000003
8.4463600000000003
8.4463600000000003
8.4463600000000003
8.4464400000000008
8.4465500000000002
8.4465500000000002
8.4465500000000002
8.4465500000000002
8.4466400000000004
8.4467400000000001
8.4467400000000001
8.4467400000000001
8.4467400000000001
8.4467400000000001
8.4468999999999994
8.4468999999999994
8.4468999999999994
8.4468999999999994
8.4470100000000006
8.4471399999999992
8.4471399999999992
8.4471399999999992
8.4471399999999992
8.4473800000000008
8.4473800000000008
8.4473800000000008
8.4473800000000008
8.4474800000000005
8.4474800000000005
8.4475099999999994
8.4475099999999994
8.4475099999999994
8.4475099999999994
8.4476399999999998
8.4477100000000007
8.4477100000000007
8.4477700000000002
8.4477700000000002
8.4477700000000002
8.4478500000000007
8.4478500000000007
8.4478500000000007
8.4478500000000007
8.4479399999999991
8.4480199999999996
8.4480199999999996
8.4480199999999996
8.4480199999999996
8.4481500000000000
8.4482199999999992
8.4482199999999992
8.4482199999999992
8.4482199999999992
8.4482900000000001
8.4483700000000006
8.4483700000000006
8.4483700000000006
8.4483700000000006
8.4483999999999995
8.4773800000000001
8.4773999999999994
8.5205500000000001
8.5205500000000001
8.5205500000000001
8.5205500000000001
8.5205500000000001
8.5205500000000001
8.5205500000000001
8.5205500000000001
8.5205500000000001
8.5205500000000001
8.5205500000000001
8.5205500000000001
8.5205500000000001
8.5205500000000001
8.5205500000000001
8.5205500000000001
8.5205500000000001
8.5205500000000001
8.5205500000000001
8.5205500000000001
8.5205500000000001
8.5205500000000001
8.5205500000000001
8.5205599999999997
8.5205599999999997
8.5205599999999997
8.5205599999999997
8.5205599999999997
8.5206000000000000
8.5206000000000000
8.5207499999999996
8.5207499999999996
8.5285499999999992
8.5376200000000004
8.5376200000000004
8.5376200000000004
8.5376200000000004
8.5421700000000005
8.5957100000000004
8.5957100000000004
8.5957100000000004
8.5957100000000004
8.5965600000000002
8.5977599999999992
8.5977599999999992
8.5977599999999992
8.5977599999999992
8.5981400000000008
8.6074599999999997
8.6301699999999997
8.6301699999999997
8.6301699999999997
8.6301699999999997
8.6301699999999997
8.6301699999999997
8.6301699999999997
8.6301699999999997
8.6301699999999997
8.6301699999999997
8.6301699999999997
8.6301699999999997
8.6301699999999997
8.6301699999999997
8.6301699999999997
8.6301699999999997
8.6301699999999997
8.6301699999999997
8.6301699999999997
8.6301699999999997
8.6301699999999997
8.6301699999999997
8.6301699999999997
8.6301699999999997
8.6330899999999993
8.6330899999999993
8.6330899999999993
8.6330899999999993
8.6414000000000009
8.6603600000000007
8.6603600000000007
8.6603600000000007
8.6997800000000005
8.6997800000000005
8.6997800000000005
8.6997800000000005
8.6997800000000005
8.6997800000000005
8.7387999999999995
8.7387999999999995
8.8345300000000009
8.8532899999999994
8.8532899999999994
8.8532899999999994
8.8532899999999994
8.8532899999999994
8.8532899999999994
8.8532899999999994
8.8532899999999994
8.8656100000000002
8.8656100000000002
8.8656100000000002
8.8656100000000002
8.8656100000000002
8.8656100000000002
8.8656100000000002
8.8656100000000002
8.8656100000000002
8.8656100000000002
8.8656100000000002
8.8656100000000002
8.8656100000000002
8.8656100000000002
8.8656100000000002
8.8656100000000002
8.8656100000000002
8.8656100000000002
8.8656100000000002
8.8656100000000002
9.2013200000000008
9.2417200000000008
9.9461700000000004
10.4193999999999996
10.4193999999999996
10.4193999999999996
10.4193999999999996
10.4193999999999996
15.3675999999999995
15.3675999999999995
15.3675999999999995
15.3675999999999995
15.3675999999999995
31.5229999999999997
31.5229999999999997
56.8211999999999975
56.8211999999999975
56.8211999999999975
57.4534000000000020
57.4534000000000020
